n,frame,desc_obj,t_obj,words,t_words,desc_scn,t_scn,inliers,outliers,in/desc,in/match,t/features
*[0m[ INFO] FHH Path: /media/franco/850Evo/FH/Datasets/Woodman_point/2017-09-10/Sand_circle/, Detector:ORB, Descriptor:ORB[0m
*
30,2,0,0,100,0,110,17,48,0,0,100.0,0
42,3,110,12,110,0,94,29,37,2,33.64,94.87,0.11
54,4,94,21,94,0,100,21,30,1,31.91,96.77,0.22
66,5,100,25,100,0,105,16,32,4,32.0,88.89,0.25
78,6,105,25,105,1,120,29,39,1,37.14,97.5,0.24
90,7,120,50,120,0,134,19,38,6,31.67,86.36,0.42
102,8,134,43,134,0,137,15,46,2,34.33,95.83,0.32
114,9,137,28,137,0,121,28,44,8,32.12,84.62,0.2
126,10,121,16,121,0,122,23,56,1,46.28,98.25,0.13
138,11,122,23,122,0,120,20,54,0,44.26,100.0,0.19
150,12,120,21,120,0,125,19,26,0,21.67,100.0,0.17
162,13,125,18,125,0,128,16,40,7,32.0,85.11,0.14
174,14,128,15,128,0,132,17,32,4,25.0,88.89,0.12
186,15,132,22,132,0,123,25,34,10,25.76,77.27,0.17
198,16,123,19,123,0,129,14,59,2,47.97,96.72,0.15
210,17,129,18,129,0,130,15,51,2,39.53,96.23,0.14
222,18,130,39,130,0,131,17,48,9,36.92,84.21,0.3
234,19,131,29,131,0,119,18,39,2,29.77,95.12,0.22
246,20,119,14,119,0,113,47,46,3,38.66,93.88,0.12
258,21,113,25,113,0,117,30,46,7,40.71,86.79,0.22
270,22,117,25,117,0,111,46,41,2,35.04,95.35,0.21
282,23,111,26,111,0,112,22,52,0,46.85,100.0,0.23
294,24,112,13,112,0,113,14,26,1,23.21,96.3,0.12
306,25,113,15,113,0,108,13,43,5,38.05,89.58,0.13
318,26,108,35,108,0,95,26,32,4,29.63,88.89,0.32
330,27,95,37,95,0,111,19,39,3,41.05,92.86,0.39
342,28,111,26,111,0,108,37,45,3,40.54,93.75,0.23
354,29,108,14,108,0,94,24,27,2,25.0,93.1,0.13
366,30,94,16,94,0,92,24,20,3,21.28,86.96,0.17
378,31,92,33,92,1,78,15,21,0,22.83,100.0,0.36
390,32,78,18,78,0,81,21,19,3,24.36,86.36,0.23
402,33,81,16,81,0,81,48,25,3,30.86,89.29,0.2
414,34,81,28,81,0,94,25,21,4,25.93,84.0,0.35
426,35,94,16,94,0,91,13,26,2,27.66,92.86,0.17
438,36,91,35,91,0,83,34,20,0,21.98,100.0,0.38
450,37,83,41,83,0,81,19,31,3,37.35,91.18,0.49
462,38,81,21,81,0,75,34,20,2,24.69,90.91,0.26
474,39,75,18,75,0,73,12,16,0,21.33,100.0,0.24
486,40,73,15,73,1,68,50,28,3,38.36,90.32,0.21
498,41,68,15,68,0,71,29,26,2,38.24,92.86,0.22
510,42,71,16,71,0,75,31,23,2,32.39,92.0,0.23
522,43,75,23,75,0,71,36,29,1,38.67,96.67,0.31
534,44,71,23,71,0,75,27,20,2,28.17,90.91,0.32
546,45,75,16,75,0,67,19,20,4,26.67,83.33,0.21
558,46,67,24,67,0,62,36,14,2,20.9,87.5,0.36
570,47,62,32,62,0,69,26,20,1,32.26,95.24,0.52
582,48,69,24,69,0,68,19,12,2,17.39,85.71,0.35
594,49,68,15,68,0,86,44,21,1,30.88,95.45,0.22
606,50,86,39,86,0,81,19,22,1,25.58,95.65,0.45
618,51,81,14,81,0,81,68,30,0,37.04,100.0,0.17
630,52,81,27,81,0,70,26,17,3,20.99,85.0,0.33
642,53,70,17,70,0,70,31,27,0,38.57,100.0,0.24
654,54,70,37,70,0,75,12,21,2,30.0,91.3,0.53
666,55,75,14,75,0,71,27,18,2,24.0,90.0,0.19
678,56,71,36,71,1,75,32,18,0,25.35,100.0,0.51
690,57,75,28,75,0,98,27,18,2,24.0,90.0,0.37
702,58,98,20,98,0,93,34,34,6,34.69,85.0,0.2
714,59,93,34,93,0,99,13,27,4,29.03,87.1,0.37
726,60,99,46,99,0,97,25,27,4,27.27,87.1,0.46
738,61,97,17,97,0,84,43,26,3,26.8,89.66,0.18
750,62,84,20,84,0,96,23,15,0,17.86,100.0,0.24
762,63,96,25,96,1,80,19,12,1,12.5,92.31,0.26
774,64,80,34,80,0,86,33,14,4,17.5,77.78,0.42
786,65,86,31,86,0,77,15,15,2,17.44,88.24,0.36
798,66,77,31,77,0,90,19,25,0,32.47,100.0,0.4
810,67,90,28,90,0,82,14,26,2,28.89,92.86,0.31
822,68,82,42,82,0,75,29,21,0,25.61,100.0,0.51
834,69,75,36,75,0,63,20,27,1,36.0,96.43,0.48
857,71,63,24,64,0,68,21,16,3,25.4,84.21,0.38
891,74,68,31,57,0,42,21,11,1,16.18,91.67,0.46
903,75,42,23,42,1,44,16,11,1,26.19,91.67,0.55
926,77,44,35,37,0,31,35,10,1,22.73,90.91,0.8
1147,97,31,20,16,0,19,17,11,0,35.48,100.0,0.65
1478,128,19,32,44,0,46,25,16,1,84.21,94.12,1.68
1490,129,46,38,46,0,52,24,23,2,50.0,92.0,0.83
1502,130,52,33,52,0,41,13,21,1,40.38,95.45,0.63
1525,132,41,19,49,0,38,18,10,0,24.39,100.0,0.46
1537,133,38,23,38,0,55,36,14,1,36.84,93.33,0.61
1549,134,55,26,55,0,37,13,14,0,25.45,100.0,0.47
1561,135,37,22,37,0,32,17,10,0,27.03,100.0,0.59
1815,158,32,34,33,0,42,24,11,2,34.38,84.62,1.06
1827,159,42,16,42,0,47,21,11,1,26.19,91.67,0.38
1850,161,47,34,59,0,54,25,16,3,34.04,84.21,0.72
1873,163,54,16,66,0,54,25,16,2,29.63,88.89,0.3
1885,164,54,34,54,0,48,17,14,1,25.93,93.33,0.63
1897,165,48,12,48,0,50,18,16,0,33.33,100.0,0.25
1920,167,50,31,63,0,68,18,16,2,32.0,88.89,0.62
1932,168,68,22,68,0,63,38,12,0,17.65,100.0,0.32
1955,170,63,24,71,0,66,46,18,2,28.57,90.0,0.38
1967,171,66,35,66,0,75,21,23,2,34.85,92.0,0.53
1979,172,75,27,75,0,66,30,20,0,26.67,100.0,0.36
1991,173,66,25,66,0,83,16,12,3,18.18,80.0,0.38
2003,174,83,26,83,0,78,20,26,1,31.33,96.3,0.31
2026,176,78,42,60,0,67,32,15,5,19.23,75.0,0.54
2038,177,67,30,67,0,105,14,21,2,31.34,91.3,0.45
2050,178,105,21,105,0,85,31,19,4,18.1,82.61,0.2
2062,179,85,15,85,0,82,21,22,2,25.88,91.67,0.18
2074,180,82,15,82,0,76,25,24,0,29.27,100.0,0.18
2086,181,76,27,76,0,94,14,18,7,23.68,72.0,0.36
2098,182,94,34,94,0,90,32,19,2,20.21,90.48,0.36
2110,183,90,27,90,0,85,22,17,1,18.89,94.44,0.3
2122,184,85,13,85,0,93,27,26,4,30.59,86.67,0.15
2134,185,93,27,93,0,94,18,24,2,25.81,92.31,0.29
2146,186,94,13,94,0,110,19,29,0,30.85,100.0,0.14
2158,187,110,14,110,0,104,41,21,4,19.09,84.0,0.13
2170,188,104,34,104,1,137,25,24,13,23.08,64.86,0.33
2182,189,137,36,137,0,137,15,35,6,25.55,85.37,0.26
2194,190,137,26,137,0,215,27,43,4,31.39,91.49,0.19
2206,191,215,32,215,0,205,18,55,7,25.58,88.71,0.15
2218,192,205,28,205,1,244,22,43,3,20.98,93.48,0.14
2230,193,244,19,244,0,256,31,54,18,22.13,75.0,0.08
2242,194,256,20,256,0,253,22,71,8,27.73,89.87,0.08
2254,195,253,14,253,0,288,15,44,13,17.39,77.19,0.06
2266,196,288,26,288,0,258,19,53,17,18.4,75.71,0.09
2278,197,258,34,258,0,266,16,77,6,29.84,92.77,0.13
2290,198,266,18,266,0,270,22,68,9,25.56,88.31,0.07
2302,199,270,35,270,1,252,26,45,7,16.67,86.54,0.13
2314,200,252,26,252,0,253,27,68,3,26.98,95.77,0.1
2326,201,253,38,253,0,221,29,33,3,13.04,91.67,0.15
2338,202,221,37,221,0,214,14,45,5,20.36,90.0,0.17
2350,203,214,25,214,0,228,42,50,6,23.36,89.29,0.12
2362,204,228,15,228,0,223,34,67,3,29.39,95.71,0.07
2374,205,223,23,223,1,195,31,44,6,19.73,88.0,0.1
2386,206,195,18,195,0,205,23,43,5,22.05,89.58,0.09
2398,207,205,33,205,0,199,36,50,5,24.39,90.91,0.16
2410,208,199,23,199,0,177,18,56,3,28.14,94.92,0.12
2422,209,177,27,177,0,171,42,40,6,22.6,86.96,0.15
2434,210,171,21,171,0,185,19,28,10,16.37,73.68,0.12
2446,211,185,17,185,0,160,18,40,3,21.62,93.02,0.09
2458,212,160,27,160,0,136,19,22,4,13.75,84.62,0.17
2470,213,136,28,136,0,111,20,17,5,12.5,77.27,0.21
2482,214,111,25,111,0,123,23,33,4,29.73,89.19,0.23
2494,215,123,30,123,0,125,20,34,7,27.64,82.93,0.24
2506,216,125,22,125,0,104,23,38,2,30.4,95.0,0.18
2518,217,104,25,104,0,97,15,18,5,17.31,78.26,0.24
2530,218,97,25,97,0,110,30,29,4,29.9,87.88,0.26
2542,219,110,23,110,0,105,31,18,3,16.36,85.71,0.21
2554,220,105,19,105,0,94,34,21,4,20.0,84.0,0.18
2566,221,94,18,94,0,86,12,16,6,17.02,72.73,0.19
2578,222,86,17,86,0,91,44,35,4,40.7,89.74,0.2
2590,223,91,14,91,0,96,24,18,2,19.78,90.0,0.15
2602,224,96,20,96,1,92,24,17,4,17.71,80.95,0.21
2614,225,92,53,92,0,104,20,14,6,15.22,70.0,0.58
2626,226,104,33,104,0,122,18,20,5,19.23,80.0,0.32
2638,227,122,23,122,0,106,38,25,2,20.49,92.59,0.19
2650,228,106,19,106,1,104,35,44,1,41.51,97.78,0.18
2662,229,104,20,104,0,112,32,34,1,32.69,97.14,0.19
2674,230,112,22,112,0,120,21,25,6,22.32,80.65,0.2
2686,231,120,21,120,0,121,29,25,5,20.83,83.33,0.17
2698,232,121,37,121,0,140,21,23,3,19.01,88.46,0.31
2710,233,140,38,140,0,126,18,33,10,23.57,76.74,0.27
2722,234,126,27,126,0,134,36,38,2,30.16,95.0,0.21
2734,235,134,15,134,0,136,19,39,3,29.1,92.86,0.11
2746,236,136,15,136,0,125,39,35,6,25.74,85.37,0.11
2758,237,125,19,125,0,116,20,30,4,24.0,88.24,0.15
2770,238,116,30,116,0,104,22,25,1,21.55,96.15,0.26
2782,239,104,21,104,0,134,18,22,5,21.15,81.48,0.2
2794,240,134,15,134,1,128,16,32,1,23.88,96.97,0.11
2806,241,128,42,128,0,130,18,19,3,14.84,86.36,0.33
2818,242,130,25,130,0,112,23,35,1,26.92,97.22,0.19
2830,243,112,19,112,0,93,34,22,4,19.64,84.62,0.17
2842,244,93,21,93,0,97,28,22,6,23.66,78.57,0.23
2854,245,97,24,97,0,106,20,25,6,25.77,80.65,0.25
2866,246,106,40,106,0,83,15,36,1,33.96,97.3,0.38
2878,247,83,41,83,0,95,21,32,6,38.55,84.21,0.49
2890,248,95,29,95,0,104,14,29,5,30.53,85.29,0.31
2902,249,104,38,104,0,92,16,22,3,21.15,88.0,0.37
2914,250,92,22,92,0,97,22,29,5,31.52,85.29,0.24
2926,251,97,39,97,0,78,49,19,4,19.59,82.61,0.4
2938,252,78,20,78,0,71,16,16,2,20.51,88.89,0.26
2950,253,71,31,71,0,77,14,27,1,38.03,96.43,0.44
2962,254,77,44,77,0,67,30,25,3,32.47,89.29,0.57
2974,255,67,38,67,0,95,25,22,2,32.84,91.67,0.57
2986,256,95,32,95,1,67,50,22,4,23.16,84.62,0.34
2998,257,67,33,67,0,66,29,13,1,19.4,92.86,0.49
3021,259,66,19,68,0,62,42,20,4,30.3,83.33,0.29
3033,260,62,21,62,0,70,20,25,1,40.32,96.15,0.34
3045,261,70,33,70,0,67,17,10,1,14.29,90.91,0.47
3057,262,67,22,67,0,63,17,18,1,26.87,94.74,0.33
3069,263,63,28,63,0,62,17,23,1,36.51,95.83,0.44
3081,264,62,57,62,0,62,16,18,2,29.03,90.0,0.92
3104,266,62,23,74,0,63,24,17,3,27.42,85.0,0.37
3138,269,63,27,66,0,55,18,11,0,17.46,100.0,0.43
3150,270,55,17,55,0,63,40,15,3,27.27,83.33,0.31
3162,271,63,11,63,0,59,24,12,3,19.05,80.0,0.17
3174,272,59,33,59,0,45,15,16,6,27.12,72.73,0.56
3197,274,45,42,56,0,56,30,18,2,40.0,90.0,0.93
3231,277,56,21,50,0,50,17,19,3,33.93,86.36,0.38
3243,278,50,38,50,0,50,49,24,0,48.0,100.0,0.76
3255,279,50,40,50,0,44,23,19,0,38.0,100.0,0.8
3267,280,44,13,44,0,50,27,20,2,45.45,90.91,0.3
3279,281,50,22,50,0,55,33,22,5,44.0,81.48,0.44
3291,282,55,15,55,0,70,24,33,4,60.0,89.19,0.27
3303,283,70,26,70,0,57,33,21,0,30.0,100.0,0.37
3315,284,57,13,57,0,72,17,21,4,36.84,84.0,0.23
3327,285,72,31,72,1,58,29,20,0,27.78,100.0,0.43
3339,286,58,23,58,0,59,40,18,3,31.03,85.71,0.4
3351,287,59,39,59,0,47,20,15,0,25.42,100.0,0.66
3363,288,47,16,47,0,50,39,20,2,42.55,90.91,0.34
3375,289,50,22,50,0,51,30,17,2,34.0,89.47,0.44
3387,290,51,42,51,0,48,24,23,1,45.1,95.83,0.82
3399,291,48,27,48,0,60,33,29,0,60.42,100.0,0.56
3411,292,60,48,60,0,40,24,10,2,16.67,83.33,0.8
3423,293,40,39,40,0,44,21,13,1,32.5,92.86,0.97
3435,294,44,24,44,0,41,43,17,1,38.64,94.44,0.55
3447,295,41,15,41,0,43,18,22,2,53.66,91.67,0.37
3459,296,43,16,43,0,37,24,11,2,25.58,84.62,0.37
3471,297,37,25,37,0,40,33,10,3,27.03,76.92,0.68
3483,298,40,36,40,0,48,16,11,3,27.5,78.57,0.9
3495,299,48,22,48,0,46,19,18,5,37.5,78.26,0.46
3518,301,46,13,44,1,48,41,13,3,28.26,81.25,0.28
3530,302,48,23,48,1,37,16,11,1,22.92,91.67,0.48
3542,303,37,25,37,0,46,43,14,3,37.84,82.35,0.68
3554,304,46,39,46,0,40,18,12,0,26.09,100.0,0.85
3566,305,40,18,40,0,40,18,13,0,32.5,100.0,0.45
3578,306,40,18,40,0,38,41,12,0,30.0,100.0,0.45
3590,307,38,27,38,0,47,28,19,0,50.0,100.0,0.71
3602,308,47,21,47,0,40,14,13,2,27.66,86.67,0.45
3779,324,40,19,29,0,43,28,10,2,25.0,83.33,0.47
3791,325,43,13,43,0,37,17,13,2,30.23,86.67,0.3
3803,326,37,29,37,0,38,50,10,0,27.03,100.0,0.78
3848,330,38,20,44,0,52,19,16,1,42.11,94.12,0.53
3860,331,52,18,52,0,61,18,20,4,38.46,83.33,0.35
3883,333,61,39,55,0,56,23,24,0,39.34,100.0,0.64
3950,339,56,21,35,0,36,18,11,1,19.64,91.67,0.38
4259,367,36,26,29,1,31,17,10,4,27.78,71.43,0.72
4337,374,31,24,28,0,39,22,10,0,32.26,100.0,0.77
4415,381,39,23,37,0,35,38,11,2,28.21,84.62,0.59
4460,385,35,35,33,0,29,30,12,0,34.29,100.0,1.0
4505,389,29,21,25,0,30,19,10,2,34.48,83.33,0.72
4517,390,30,27,30,0,31,22,11,0,36.67,100.0,0.9
4540,392,31,42,25,0,32,60,11,0,35.48,100.0,1.35
4563,394,32,18,27,0,33,34,10,0,31.25,100.0,0.56
4685,405,33,14,11,0,28,36,10,1,30.3,90.91,0.42
4741,410,28,33,27,0,31,12,16,3,57.14,84.21,1.18
4753,411,31,18,31,0,40,26,12,1,38.71,92.31,0.58
4765,412,40,38,40,0,41,16,17,0,42.5,100.0,0.95
4788,414,41,27,44,0,51,13,10,1,24.39,90.91,0.66
4800,415,51,20,51,0,64,17,21,6,41.18,77.78,0.39
4812,416,64,17,64,0,69,30,22,1,34.38,95.65,0.27
4824,417,69,19,69,0,81,34,32,9,46.38,78.05,0.28
4836,418,81,18,81,1,80,19,37,2,45.68,94.87,0.22
4848,419,80,23,80,0,77,22,18,4,22.5,81.82,0.29
4860,420,77,17,77,0,92,13,23,3,29.87,88.46,0.22
4872,421,92,20,92,0,73,16,14,3,15.22,82.35,0.22
4884,422,73,29,73,0,63,23,17,1,23.29,94.44,0.4
4907,424,63,21,50,0,45,17,15,2,23.81,88.24,0.33
4963,429,45,27,39,0,49,17,12,2,26.67,85.71,0.6
4975,430,49,17,49,0,51,17,11,0,22.45,100.0,0.35
5031,435,51,12,54,0,58,27,12,3,23.53,80.0,0.24
5043,436,58,22,58,0,65,25,12,0,20.69,100.0,0.38
5066,438,65,24,68,0,71,17,16,4,24.62,80.0,0.37
5078,439,71,45,71,0,83,40,20,1,28.17,95.24,0.63
5101,441,83,28,93,0,79,21,13,3,15.66,81.25,0.34
5113,442,79,32,79,0,79,14,16,1,20.25,94.12,0.41
5125,443,79,50,79,0,86,16,21,3,26.58,87.5,0.63
5148,445,86,29,98,0,106,19,13,4,15.12,76.47,0.34
5160,446,106,16,106,1,105,14,15,1,14.15,93.75,0.15
5172,447,105,26,105,0,99,32,24,3,22.86,88.89,0.25
5184,448,99,24,99,0,100,23,10,3,10.1,76.92,0.24
5196,449,100,38,100,0,98,24,27,4,27.0,87.1,0.38
5208,450,98,20,98,0,82,24,23,3,23.47,88.46,0.2
5231,452,82,22,78,0,72,30,16,3,19.51,84.21,0.27
5276,456,72,26,58,0,75,15,14,5,19.44,73.68,0.36
5299,458,75,29,67,0,77,30,11,2,14.67,84.62,0.39
5355,463,77,24,107,1,112,15,16,7,20.78,69.57,0.31
5367,464,112,31,112,0,111,11,11,3,9.82,78.57,0.28
5379,465,111,44,111,0,139,28,15,4,13.51,78.95,0.4
5391,466,139,14,139,0,134,15,16,5,11.51,76.19,0.1
5414,468,134,31,123,0,153,24,10,7,7.46,58.82,0.23
5426,469,153,24,153,0,156,44,38,7,24.84,84.44,0.16
5438,470,156,16,156,0,156,16,20,6,12.82,76.92,0.1
5450,471,156,42,156,0,172,18,29,9,18.59,76.32,0.27
5462,472,172,42,172,0,178,15,16,1,9.3,94.12,0.24
5474,473,178,29,178,0,180,21,32,9,17.98,78.05,0.16
5486,474,180,25,180,0,187,16,27,7,15.0,79.41,0.14
5498,475,187,29,187,0,164,41,23,2,12.3,92.0,0.16
5521,477,164,33,183,0,184,18,36,8,21.95,81.82,0.2
5533,478,184,21,184,0,191,23,33,5,17.93,86.84,0.11
5545,479,191,17,191,0,193,23,39,5,20.42,88.64,0.09
5557,480,193,29,193,0,179,24,35,11,18.13,76.09,0.15
5569,481,179,18,179,0,169,32,19,7,10.61,73.08,0.1
5581,482,169,30,169,0,201,20,30,4,17.75,88.24,0.18
5593,483,201,24,201,1,168,31,24,9,11.94,72.73,0.12
5605,484,168,27,168,0,144,28,17,4,10.12,80.95,0.16
5617,485,144,23,144,0,148,13,10,3,6.94,76.92,0.16
5629,486,148,23,148,0,152,17,25,1,16.89,96.15,0.16
5641,487,152,18,152,0,129,29,23,1,15.13,95.83,0.12
5653,488,129,27,129,0,136,19,18,9,13.95,66.67,0.21
5665,489,136,24,136,0,130,26,20,1,14.71,95.24,0.18
5677,490,130,32,130,0,133,21,23,4,17.69,85.19,0.25
5689,491,133,22,133,0,142,24,22,4,16.54,84.62,0.17
5701,492,142,30,142,0,136,20,15,2,10.56,88.24,0.21
5713,493,136,25,136,0,131,29,14,2,10.29,87.5,0.18
5725,494,131,30,131,0,145,19,10,2,7.63,83.33,0.23
5737,495,145,28,145,0,145,23,30,6,20.69,83.33,0.19
5749,496,145,41,145,0,130,23,21,1,14.48,95.45,0.28
5761,497,130,32,130,0,130,36,15,1,11.54,93.75,0.25
5773,498,130,37,130,0,141,25,24,3,18.46,88.89,0.28
5785,499,141,18,141,0,171,23,27,2,19.15,93.1,0.13
5797,500,171,31,171,0,163,14,29,5,16.96,85.29,0.18
5809,501,163,28,163,0,191,20,42,3,25.77,93.33,0.17
5821,502,191,27,191,0,164,25,20,5,10.47,80.0,0.14
5833,503,164,15,164,0,159,19,22,9,13.41,70.97,0.09
5845,504,159,28,159,1,121,26,15,4,9.43,78.95,0.18
5857,505,121,14,121,0,108,16,19,2,15.7,90.48,0.12
5869,506,108,33,108,0,119,23,15,3,13.89,83.33,0.31
5892,508,119,38,119,0,109,28,14,4,11.76,77.78,0.32
5904,509,109,21,109,0,89,20,13,1,11.93,92.86,0.19
5927,511,89,46,62,0,80,24,14,0,15.73,100.0,0.52
5939,512,80,52,80,0,83,19,11,0,13.75,100.0,0.65
5951,513,83,21,83,0,77,29,13,0,15.66,100.0,0.25
5974,515,77,16,78,0,76,12,15,0,19.48,100.0,0.21
5986,516,76,23,76,0,69,21,24,0,31.58,100.0,0.3
5998,517,69,26,69,0,60,24,21,5,30.43,80.77,0.38
6010,518,60,23,60,0,66,30,18,2,30.0,90.0,0.38
6022,519,66,21,66,0,73,20,10,1,15.15,90.91,0.32
6034,520,73,23,73,0,74,33,14,0,19.18,100.0,0.32
6046,521,74,13,74,0,62,20,16,0,21.62,100.0,0.18
6069,523,62,30,66,0,65,17,12,0,19.35,100.0,0.48
6081,524,65,26,65,0,66,27,15,4,23.08,78.95,0.4
6093,525,66,20,66,0,71,21,15,4,22.73,78.95,0.3
6105,526,71,21,71,0,63,25,12,0,16.9,100.0,0.3
6117,527,63,19,63,0,64,23,11,5,17.46,68.75,0.3
6129,528,64,31,64,0,72,31,11,4,17.19,73.33,0.48
6141,529,72,23,72,0,74,20,12,2,16.67,85.71,0.32
6164,531,74,39,71,0,53,21,11,1,14.86,91.67,0.53
6176,532,53,30,53,0,64,27,18,2,33.96,90.0,0.57
6188,533,64,24,64,0,52,28,14,0,21.88,100.0,0.38
6211,535,52,50,59,0,70,16,25,4,48.08,86.21,0.96
6223,536,70,24,70,0,60,22,21,0,30.0,100.0,0.34
6235,537,60,26,60,0,63,19,22,0,36.67,100.0,0.43
6247,538,63,19,63,0,50,23,16,0,25.4,100.0,0.3
6259,539,50,20,50,0,50,20,11,2,22.0,84.62,0.4
6271,540,50,21,50,0,42,27,12,0,24.0,100.0,0.42
6283,541,42,13,42,0,48,23,10,0,23.81,100.0,0.31
6295,542,48,19,48,0,46,24,14,0,29.17,100.0,0.4
6307,543,46,19,46,0,37,37,12,0,26.09,100.0,0.41
6319,544,37,11,37,0,52,21,16,0,43.24,100.0,0.3
6331,545,52,14,52,0,41,25,12,0,23.08,100.0,0.27
6343,546,41,24,41,1,55,18,15,1,36.59,93.75,0.59
6355,547,55,21,55,0,47,12,12,0,21.82,100.0,0.38
6378,549,47,21,47,0,38,16,10,0,21.28,100.0,0.45
6390,550,38,18,38,0,39,19,11,0,28.95,100.0,0.47
6413,552,39,19,31,0,32,25,11,0,28.21,100.0,0.49
6436,554,32,30,35,0,31,26,10,1,31.25,90.91,0.94
6459,556,31,23,34,0,36,27,13,3,41.94,81.25,0.74
6548,564,36,14,21,0,30,35,12,0,33.33,100.0,0.39
6593,568,30,25,24,0,37,19,11,0,36.67,100.0,0.83
6605,569,37,35,37,0,60,11,10,1,27.03,90.91,0.95
6617,570,60,24,60,0,55,19,18,0,30.0,100.0,0.4
6629,571,55,21,55,0,66,19,17,0,30.91,100.0,0.38
6641,572,66,24,66,0,57,23,29,1,43.94,96.67,0.36
6653,573,57,17,57,0,72,20,11,3,19.3,78.57,0.3
6665,574,72,21,72,0,78,30,34,1,47.22,97.14,0.29
6677,575,78,29,78,0,89,31,35,0,44.87,100.0,0.37
6689,576,89,21,89,0,75,29,17,1,19.1,94.44,0.24
6701,577,75,34,75,0,66,15,14,5,18.67,73.68,0.45
6713,578,66,23,66,0,63,41,24,0,36.36,100.0,0.35
6725,579,63,25,63,0,71,32,22,0,34.92,100.0,0.4
6737,580,71,13,71,0,62,25,26,1,36.62,96.3,0.18
6760,582,62,23,55,0,58,18,17,1,27.42,94.44,0.37
6794,585,58,17,62,0,59,44,17,0,29.31,100.0,0.29
6806,586,59,12,59,0,56,13,13,0,22.03,100.0,0.2
6818,587,56,21,56,0,57,26,19,0,33.93,100.0,0.38
6830,588,57,28,57,1,57,16,19,1,33.33,95.0,0.49
6842,589,57,12,57,1,56,25,21,1,36.84,95.45,0.21
6854,590,56,31,56,1,66,20,21,3,37.5,87.5,0.55
6866,591,66,17,66,0,74,31,25,2,37.88,92.59,0.26
6878,592,74,33,74,0,97,16,22,0,29.73,100.0,0.45
6890,593,97,34,97,0,110,23,30,4,30.93,88.24,0.35
6902,594,110,35,110,1,103,21,17,2,15.45,89.47,0.32
6914,595,103,27,103,0,112,24,30,3,29.13,90.91,0.26
6926,596,112,29,112,0,114,27,28,0,25.0,100.0,0.26
6938,597,114,17,114,0,117,12,25,3,21.93,89.29,0.15
6950,598,117,44,117,0,120,21,12,1,10.26,92.31,0.38
6962,599,120,21,120,1,112,31,27,2,22.5,93.1,0.17
6974,600,112,27,112,0,148,43,41,2,36.61,95.35,0.24
6986,601,148,23,148,1,115,13,44,1,29.73,97.78,0.16
6998,602,115,13,115,0,125,31,46,2,40.0,95.83,0.11
7010,603,125,23,125,0,99,21,33,3,26.4,91.67,0.18
7022,604,99,15,99,0,122,22,31,0,31.31,100.0,0.15
7034,605,122,28,122,0,134,21,26,1,21.31,96.3,0.23
7046,606,134,23,134,0,181,42,34,1,25.37,97.14,0.17
7058,607,181,29,181,0,200,17,54,1,29.83,98.18,0.16
7070,608,200,20,200,0,248,22,64,2,32.0,96.97,0.1
7082,609,248,21,248,1,268,23,68,3,27.42,95.77,0.08
7094,610,268,35,268,0,300,35,67,3,25.0,95.71,0.13
7106,611,300,24,300,0,300,30,76,11,25.33,87.36,0.08
7118,612,300,20,300,0,308,27,62,16,20.67,79.49,0.07
7130,613,308,20,308,0,280,32,63,16,20.45,79.75,0.06
7142,614,280,33,280,0,233,22,68,2,24.29,97.14,0.12
7154,615,233,75,233,1,239,36,78,1,33.48,98.73,0.32
7166,616,239,13,239,0,208,17,73,0,30.54,100.0,0.05
7178,617,208,22,208,0,209,30,62,2,29.81,96.88,0.11
7190,618,209,23,209,0,159,29,32,4,15.31,88.89,0.11
7202,619,159,34,159,0,129,22,35,4,22.01,89.74,0.21
7214,620,129,32,129,0,120,30,32,2,24.81,94.12,0.25
7226,621,120,24,120,0,130,37,46,2,38.33,95.83,0.2
7238,622,130,25,130,0,118,40,36,3,27.69,92.31,0.19
7250,623,118,32,118,1,125,14,38,1,32.2,97.44,0.27
7262,624,125,51,125,0,105,18,20,2,16.0,90.91,0.41
7274,625,105,22,105,0,117,35,29,1,27.62,96.67,0.21
7286,626,117,25,117,0,104,33,31,1,26.5,96.88,0.21
7298,627,104,14,104,0,107,22,35,3,33.65,92.11,0.13
7310,628,107,27,107,0,108,30,32,1,29.91,96.97,0.25
7322,629,108,18,108,0,115,25,22,7,20.37,75.86,0.17
7334,630,115,34,115,0,106,15,40,2,34.78,95.24,0.3
7346,631,106,16,106,0,91,27,35,2,33.02,94.59,0.15
7358,632,91,19,91,0,108,41,39,1,42.86,97.5,0.21
7370,633,108,38,108,0,95,31,29,5,26.85,85.29,0.35
7382,634,95,20,95,0,102,45,32,1,33.68,96.97,0.21
7394,635,102,22,102,1,103,18,34,5,33.33,87.18,0.22
7406,636,103,24,103,0,101,26,32,2,31.07,94.12,0.23
7418,637,101,31,101,0,110,41,40,3,39.6,93.02,0.31
7430,638,110,24,110,1,92,16,41,2,37.27,95.35,0.22
7442,639,92,18,92,0,87,31,27,1,29.35,96.43,0.2
7454,640,87,19,87,0,104,26,32,4,36.78,88.89,0.22
7466,641,104,22,104,0,102,40,29,0,27.88,100.0,0.21
7478,642,102,35,102,0,89,43,28,1,27.45,96.55,0.34
7490,643,89,19,89,0,74,27,19,7,21.35,73.08,0.21
7502,644,74,28,74,0,77,20,17,5,22.97,77.27,0.38
7514,645,77,24,77,0,64,23,19,0,24.68,100.0,0.31
7526,646,64,33,64,0,65,23,20,2,31.25,90.91,0.52
7538,647,65,36,65,0,54,14,14,4,21.54,77.78,0.55
7550,648,54,24,54,0,45,35,17,4,31.48,80.95,0.44
7562,649,45,16,45,0,52,35,16,0,35.56,100.0,0.36
7574,650,52,23,52,0,56,37,23,1,44.23,95.83,0.44
7586,651,56,25,56,0,53,19,15,1,26.79,93.75,0.45
7598,652,53,31,53,0,46,24,17,0,32.08,100.0,0.58
7610,653,46,16,46,0,43,22,12,2,26.09,85.71,0.35
7622,654,43,20,43,0,64,21,18,7,41.86,72.0,0.47
7634,655,64,20,64,0,59,24,20,1,31.25,95.24,0.31
7646,656,59,32,59,0,35,24,10,0,16.95,100.0,0.54
7658,657,35,22,35,0,50,21,14,0,40.0,100.0,0.63
7681,659,50,26,37,0,36,18,10,0,20.0,100.0,0.52
7693,660,36,29,36,0,33,54,11,1,30.56,91.67,0.81
7705,661,33,19,33,0,40,18,11,0,33.33,100.0,0.58
7717,662,40,19,40,0,37,18,10,1,25.0,90.91,0.47
7729,663,37,23,37,0,33,21,10,0,27.03,100.0,0.62
7763,666,33,33,25,0,37,15,10,0,30.3,100.0,1.0
7775,667,37,23,37,0,33,25,12,0,32.43,100.0,0.62
7798,669,33,22,34,0,36,18,10,1,30.3,90.91,0.67
7832,672,36,26,43,0,43,30,19,0,52.78,100.0,0.72
7844,673,43,34,43,0,42,25,15,2,34.88,88.24,0.79
7856,674,42,13,42,0,45,18,16,0,38.1,100.0,0.31
7868,675,45,31,45,0,56,46,20,2,44.44,90.91,0.69
7880,676,56,32,56,0,51,13,20,0,35.71,100.0,0.57
7892,677,51,28,51,0,55,15,16,2,31.37,88.89,0.55
7904,678,55,25,55,0,66,21,20,1,36.36,95.24,0.45
7916,679,66,23,66,0,69,33,29,0,43.94,100.0,0.35
7928,680,69,13,69,0,61,22,21,1,30.43,95.45,0.19
7940,681,61,19,61,0,55,14,15,0,24.59,100.0,0.31
7952,682,55,39,55,0,63,17,19,1,34.55,95.0,0.71
7964,683,63,37,63,0,48,15,13,1,20.63,92.86,0.59
7976,684,48,24,48,0,40,32,10,1,20.83,90.91,0.5
7988,685,40,13,40,0,49,21,12,1,30.0,92.31,0.33
8000,686,49,24,49,0,38,17,15,0,30.61,100.0,0.49
8023,688,38,18,35,0,41,29,12,1,31.58,92.31,0.47
8035,689,41,16,41,0,40,28,11,1,26.83,91.67,0.39
8047,690,40,26,40,0,37,20,11,4,27.5,73.33,0.65
8059,691,37,18,37,0,60,16,10,1,27.03,90.91,0.49
8071,692,60,31,60,0,55,17,14,4,23.33,77.78,0.52
8083,693,55,22,55,0,70,26,17,2,30.91,89.47,0.4
8095,694,70,47,70,1,71,21,18,0,25.71,100.0,0.67
8107,695,71,16,71,0,75,22,23,1,32.39,95.83,0.23
8119,696,75,29,75,0,57,25,15,2,20.0,88.24,0.39
8131,697,57,14,57,0,62,15,19,2,33.33,90.48,0.25
8143,698,62,33,62,0,78,24,33,1,53.23,97.06,0.53
8155,699,78,26,78,0,89,24,28,1,35.9,96.55,0.33
8167,700,89,51,89,0,90,27,19,3,21.35,86.36,0.57
8179,701,90,29,90,0,87,16,26,1,28.89,96.3,0.32
8202,703,87,34,81,0,106,25,28,2,32.18,93.33,0.39
8214,704,106,36,106,0,98,15,37,0,34.91,100.0,0.34
8226,705,98,15,98,0,109,13,42,4,42.86,91.3,0.15
8238,706,109,21,109,0,109,32,35,5,32.11,87.5,0.19
8250,707,109,20,109,0,89,13,28,3,25.69,90.32,0.18
8262,708,89,45,89,0,82,24,23,2,25.84,92.0,0.51
8274,709,82,30,82,0,76,15,28,4,34.15,87.5,0.37
8286,710,76,35,76,0,65,19,13,2,17.11,86.67,0.46
8298,711,65,23,65,0,74,20,15,1,23.08,93.75,0.35
8310,712,74,36,74,0,51,31,13,0,17.57,100.0,0.49
8322,713,51,15,51,0,49,15,13,1,25.49,92.86,0.29
8334,714,49,23,49,0,46,31,15,0,30.61,100.0,0.47
8346,715,46,27,46,0,48,14,13,2,28.26,86.67,0.59
8358,716,48,39,48,0,49,23,13,2,27.08,86.67,0.81
8370,717,49,27,49,1,51,24,17,1,34.69,94.44,0.55
8382,718,51,25,51,0,47,24,16,0,31.37,100.0,0.49
8416,721,47,14,55,0,57,20,14,0,29.79,100.0,0.3
8428,722,57,16,57,0,41,18,12,0,21.05,100.0,0.28
8440,723,41,22,41,0,45,11,15,1,36.59,93.75,0.54
8452,724,45,25,45,0,50,19,18,3,40.0,85.71,0.56
8464,725,50,20,50,0,45,14,11,0,22.0,100.0,0.4
8476,726,45,17,45,0,59,23,12,0,26.67,100.0,0.38
8488,727,59,26,59,0,66,24,16,2,27.12,88.89,0.44
8500,728,66,25,66,0,54,17,23,0,34.85,100.0,0.38
8512,729,54,22,54,0,63,25,27,0,50.0,100.0,0.41
8524,730,63,21,63,0,69,24,17,0,26.98,100.0,0.33
8536,731,69,49,69,0,83,16,25,1,36.23,96.15,0.71
8548,732,83,24,83,0,83,33,14,1,16.87,93.33,0.29
8560,733,83,24,83,0,85,25,26,0,31.33,100.0,0.29
8572,734,85,18,85,0,83,18,17,0,20.0,100.0,0.21
8584,735,83,18,83,0,94,31,19,2,22.89,90.48,0.22
8596,736,94,26,94,0,83,13,17,5,18.09,77.27,0.28
8608,737,83,19,83,0,84,29,20,2,24.1,90.91,0.23
8620,738,84,26,84,0,83,14,28,1,33.33,96.55,0.31
8632,739,83,24,83,0,87,41,27,1,32.53,96.43,0.29
8644,740,87,14,87,0,92,21,27,9,31.03,75.0,0.16
8656,741,92,17,92,0,92,32,24,1,26.09,96.0,0.18
8668,742,92,27,92,0,88,12,22,3,23.91,88.0,0.29
8680,743,88,21,88,0,71,26,17,3,19.32,85.0,0.24
8692,744,71,29,71,0,75,20,16,6,22.54,72.73,0.41
8704,745,75,18,75,0,79,27,22,1,29.33,95.65,0.24
8716,746,79,17,79,0,74,24,18,5,22.78,78.26,0.22
8728,747,74,17,74,0,76,28,19,5,25.68,79.17,0.23
8740,748,76,37,76,0,86,12,21,0,27.63,100.0,0.49
8752,749,86,26,86,1,76,36,19,1,22.09,95.0,0.3
8764,750,76,25,76,0,87,20,26,4,34.21,86.67,0.33
8776,751,87,28,87,0,88,45,31,8,35.63,79.49,0.32
8788,752,88,29,88,0,84,29,35,0,39.77,100.0,0.33
8800,753,84,16,84,0,64,47,22,0,26.19,100.0,0.19
8812,754,64,30,64,0,80,17,20,0,31.25,100.0,0.47
8824,755,80,26,80,1,90,23,23,4,28.75,85.19,0.33
8836,756,90,24,90,0,96,26,28,0,31.11,100.0,0.27
8848,757,96,33,96,0,113,43,30,1,31.25,96.77,0.34
8860,758,113,35,113,0,105,25,36,1,31.86,97.3,0.31
8872,759,105,21,105,0,124,17,28,3,26.67,90.32,0.2
8884,760,124,28,124,0,156,21,48,11,38.71,81.36,0.23
8896,761,156,15,156,0,142,20,46,5,29.49,90.2,0.1
8908,762,142,22,142,0,172,21,64,8,45.07,88.89,0.15
8920,763,172,15,172,0,177,20,63,3,36.63,95.45,0.09
8932,764,177,43,177,0,163,27,58,4,32.77,93.55,0.24
8944,765,163,26,163,0,181,21,66,4,40.49,94.29,0.16
8956,766,181,31,181,0,174,30,66,5,36.46,92.96,0.17
8968,767,174,14,174,0,162,14,61,3,35.06,95.31,0.08
8980,768,162,25,162,0,151,27,70,0,43.21,100.0,0.15
8992,769,151,25,151,0,158,33,56,6,37.09,90.32,0.17
9004,770,158,31,158,0,161,18,55,3,34.81,94.83,0.2
9016,771,161,22,161,0,153,17,62,5,38.51,92.54,0.14
9028,772,153,42,153,0,151,17,64,0,41.83,100.0,0.27
9040,773,151,27,151,0,158,15,55,3,36.42,94.83,0.18
9052,774,158,21,158,0,155,46,80,0,50.63,100.0,0.13
9064,775,155,15,155,0,170,22,58,5,37.42,92.06,0.1
9076,776,170,22,170,0,159,27,63,5,37.06,92.65,0.13
9088,777,159,21,159,0,149,21,60,6,37.74,90.91,0.13
9100,778,149,19,149,0,138,29,56,9,37.58,86.15,0.13
9112,779,138,20,138,0,139,24,51,9,36.96,85.0,0.14
9124,780,139,23,139,0,133,30,61,0,43.88,100.0,0.17
9136,781,133,23,133,0,164,21,52,3,39.1,94.55,0.17
9148,782,164,32,164,0,152,25,54,6,32.93,90.0,0.2
9160,783,152,18,152,0,135,20,45,2,29.61,95.74,0.12
9172,784,135,21,135,0,161,25,49,2,36.3,96.08,0.16
9184,785,161,35,161,0,156,29,55,1,34.16,98.21,0.22
9196,786,156,17,156,0,174,20,58,8,37.18,87.88,0.11
9208,787,174,21,174,0,200,37,70,3,40.23,95.89,0.12
9220,788,200,15,200,0,195,20,79,8,39.5,90.8,0.07
9232,789,195,21,195,1,240,40,94,4,48.21,95.92,0.11
9244,790,240,29,240,0,260,27,98,1,40.83,98.99,0.12
9256,791,260,19,260,0,256,48,89,20,34.23,81.65,0.07
9268,792,256,36,256,0,301,19,111,0,43.36,100.0,0.14
9280,793,301,20,301,0,286,18,110,2,36.54,98.21,0.07
9292,794,286,28,286,0,308,32,142,1,49.65,99.3,0.1
9304,795,308,21,308,0,319,36,121,4,39.29,96.8,0.07
9316,796,319,29,319,1,327,22,106,15,33.23,87.6,0.09
9328,797,327,30,327,1,335,24,114,24,34.86,82.61,0.09
9340,798,335,24,335,0,331,22,141,2,42.09,98.6,0.07
9352,799,331,30,331,0,344,12,139,12,41.99,92.05,0.09
9364,800,344,40,344,0,338,16,118,5,34.3,95.93,0.12
9376,801,338,26,338,1,327,24,125,7,36.98,94.7,0.08
9388,802,327,19,327,1,306,26,119,2,36.39,98.35,0.06
9400,803,306,28,306,1,299,21,112,5,36.6,95.73,0.09
9412,804,299,26,299,1,303,33,113,5,37.79,95.76,0.09
9424,805,303,25,303,0,293,23,118,0,38.94,100.0,0.08
9436,806,293,19,293,0,285,24,111,14,37.88,88.8,0.06
9448,807,285,30,285,0,285,35,111,14,38.95,88.8,0.11
9460,808,285,19,285,1,286,34,112,2,39.3,98.25,0.07
9472,809,286,33,286,0,275,22,82,4,28.67,95.35,0.12
9484,810,275,31,275,0,288,26,119,8,43.27,93.7,0.11
9496,811,288,48,288,0,298,41,133,4,46.18,97.08,0.17
9508,812,298,32,298,0,306,16,123,14,41.28,89.78,0.11
9520,813,306,35,306,1,327,40,160,3,52.29,98.16,0.11
9532,814,327,23,327,0,311,40,131,1,40.06,99.24,0.07
9544,815,311,24,311,0,337,24,144,13,46.3,91.72,0.08
9556,816,337,40,337,0,341,30,143,27,42.43,84.12,0.12
9568,817,341,23,341,0,374,20,140,2,41.06,98.59,0.07
9580,818,374,48,374,0,357,17,107,49,28.61,68.59,0.13
9592,819,357,30,357,1,419,45,152,15,42.58,91.02,0.08
9604,820,419,32,419,1,450,35,180,3,42.96,98.36,0.08
9616,821,450,24,450,0,493,38,148,37,32.89,80.0,0.05
9628,822,493,28,493,1,507,23,189,32,38.34,85.52,0.06
9640,823,507,42,507,0,610,30,190,19,37.48,90.91,0.08
9652,824,610,18,610,1,623,32,223,12,36.56,94.89,0.03
9664,825,623,25,623,0,584,31,183,14,29.37,92.89,0.04
9676,826,584,32,584,0,563,42,214,36,36.64,85.6,0.05
9688,827,563,16,563,0,580,24,179,50,31.79,78.17,0.03
9700,828,580,26,580,0,491,24,209,6,36.03,97.21,0.04
9712,829,491,24,491,0,523,34,230,31,46.84,88.12,0.05
9724,830,523,31,523,0,493,20,223,1,42.64,99.55,0.06
9736,831,493,35,493,1,468,19,197,4,39.96,98.01,0.07
9748,832,468,29,468,0,420,15,166,5,35.47,97.08,0.06
9760,833,420,46,420,0,357,45,92,24,21.9,79.31,0.11
9772,834,357,25,357,0,330,30,113,3,31.65,97.41,0.07
9784,835,330,16,330,0,374,40,115,10,34.85,92.0,0.05
9796,836,374,33,374,1,370,27,119,9,31.82,92.97,0.09
9808,837,370,26,370,0,384,18,140,4,37.84,97.22,0.07
9820,838,384,25,384,0,409,27,136,12,35.42,91.89,0.07
9832,839,409,25,409,0,428,28,139,14,33.99,90.85,0.06
9844,840,428,22,428,0,419,25,165,3,38.55,98.21,0.05
9856,841,419,26,419,1,518,37,123,23,29.36,84.25,0.06
9868,842,518,35,518,1,633,41,180,22,34.75,89.11,0.07
9880,843,633,26,633,0,825,31,139,39,21.96,78.09,0.04
9892,844,825,22,825,0,1057,25,223,28,27.03,88.84,0.03
9904,845,1057,45,1057,1,1321,45,278,45,26.3,86.07,0.04
9916,846,1321,40,1321,1,1527,38,439,66,33.23,86.93,0.03
9928,847,1527,38,1527,1,2006,39,354,55,23.18,86.55,0.02
9940,848,2006,45,2006,1,2172,37,713,30,35.54,95.96,0.02
9952,849,2172,54,2172,1,2338,41,740,22,34.07,97.11,0.02
9964,850,2338,42,2338,1,2417,31,807,14,34.52,98.29,0.02
9976,851,2417,53,2417,1,2533,29,620,175,25.65,77.99,0.02
9988,852,2533,22,2533,0,2603,21,723,69,28.54,91.29,0.01
10000,853,2603,33,2603,1,2742,26,829,78,31.85,91.4,0.01
10012,854,2742,36,2742,1,2998,51,364,193,13.27,65.35,0.01
10024,855,2998,66,2998,1,3170,33,524,257,17.48,67.09,0.02
10036,856,3170,55,3170,1,3574,50,502,245,15.84,67.2,0.02
10048,857,3574,51,3574,0,3652,51,721,192,20.17,78.97,0.01
10060,858,3652,59,3652,2,3506,47,484,278,13.25,63.52,0.02
10072,859,3506,46,3506,1,3390,31,694,299,19.79,69.89,0.01
10084,860,3390,51,3390,2,3149,55,447,269,13.19,62.43,0.02
10096,861,3149,39,3149,1,2910,35,698,109,22.17,86.49,0.01
10108,862,2910,53,2910,1,2623,35,401,191,13.78,67.74,0.02
10120,863,2623,47,2623,1,2444,52,479,203,18.26,70.23,0.02
10132,864,2444,33,2444,1,2334,33,383,179,15.67,68.15,0.01
10144,865,2334,45,2334,1,2324,29,602,87,25.79,87.37,0.02
10156,866,2324,61,2324,1,2319,33,379,176,16.31,68.29,0.03
10168,867,2319,50,2319,1,2295,22,504,115,21.73,81.42,0.02
10180,868,2295,27,2295,1,2257,28,405,104,17.65,79.57,0.01
10192,869,2257,44,2257,0,2211,37,503,123,22.29,80.35,0.02
10204,870,2211,27,2211,0,2244,27,437,132,19.76,76.8,0.01
10216,871,2244,48,2244,1,2343,72,615,96,27.41,86.5,0.02
10228,872,2343,32,2343,1,2357,45,517,187,22.07,73.44,0.01
10240,873,2357,26,2357,1,2484,29,844,31,35.81,96.46,0.01
10252,874,2484,68,2484,1,2704,51,442,150,17.79,74.66,0.03
10264,875,2704,25,2704,1,2787,27,766,71,28.33,91.52,0.01
10276,876,2787,41,2787,2,3239,32,515,148,18.48,77.68,0.01
10288,877,3239,80,3239,1,3376,32,803,133,24.79,85.79,0.02
10300,878,3376,43,3376,0,3581,35,530,262,15.7,66.92,0.01
10312,879,3581,38,3581,1,3656,69,1207,72,33.71,94.37,0.01
10324,880,3656,34,3656,1,3701,29,1174,92,32.11,92.73,0.01
10336,881,3701,64,3701,1,3844,34,1126,210,30.42,84.28,0.02
10348,882,3844,59,3844,1,3850,33,1051,267,27.34,79.74,0.02
10360,883,3850,40,3850,2,4300,52,481,321,12.49,59.98,0.01
10372,884,4300,45,4300,2,4205,39,1063,293,24.72,78.39,0.01
10384,885,4205,40,4205,1,4272,44,458,291,10.89,61.15,0.01
10396,886,4272,76,4272,1,4361,33,747,351,17.49,68.03,0.02
10408,887,4361,55,4361,2,4524,64,540,308,12.38,63.68,0.01
10420,888,4524,40,4524,1,4623,38,820,340,18.13,70.69,0.01
10432,889,4623,26,4623,2,4755,41,679,237,14.69,74.13,0.01
10444,890,4755,68,4755,1,4751,41,857,344,18.02,71.36,0.01
10456,891,4751,47,4751,2,4806,82,604,230,12.71,72.42,0.01
10468,892,4806,82,4806,2,4737,30,635,467,13.21,57.62,0.02
10480,893,4737,37,4737,2,4888,48,438,284,9.25,60.66,0.01
10492,894,4888,57,4888,2,5020,39,722,260,14.77,73.52,0.01
10504,895,5020,56,5020,2,4934,32,559,239,11.14,70.05,0.01
10516,896,4934,42,4934,1,5070,46,871,286,17.65,75.28,0.01
10528,897,5070,69,5070,2,4898,36,464,241,9.15,65.82,0.01
10540,898,4898,63,4898,1,4988,33,803,368,16.39,68.57,0.01
10552,899,4988,57,4988,2,5202,38,637,211,12.77,75.12,0.01
10564,900,5202,73,5202,2,5083,48,897,230,17.24,79.59,0.01
10576,901,5083,39,5083,2,5015,83,1368,389,26.91,77.86,0.01
10588,902,5015,42,5015,2,5148,38,1499,250,29.89,85.71,0.01
10600,903,5148,46,5148,2,5117,33,1690,124,32.83,93.16,0.01
10612,904,5117,41,5117,2,4896,53,546,347,10.67,61.14,0.01
10624,905,4896,33,4896,2,4825,90,851,485,17.38,63.7,0.01
10636,906,4825,61,4825,1,4684,45,579,302,12.0,65.72,0.01
10648,907,4684,76,4684,2,4510,50,928,274,19.81,77.2,0.02
10660,908,4510,37,4510,2,4001,53,595,219,13.19,73.1,0.01
10672,909,4001,55,4001,1,3739,36,773,231,19.32,76.99,0.01
10684,910,3739,41,3739,1,3247,27,399,293,10.67,57.66,0.01
10696,911,3247,31,3247,1,3146,55,677,187,20.85,78.36,0.01
10708,912,3146,32,3146,1,3095,34,416,254,13.22,62.09,0.01
10720,913,3095,38,3095,1,2994,23,594,95,19.19,86.21,0.01
10732,914,2994,64,2994,1,2959,78,798,187,26.65,81.02,0.02
10744,915,2959,35,2959,2,2913,27,480,180,16.22,72.73,0.01
10756,916,2913,47,2913,1,2844,24,742,163,25.47,81.99,0.02
10768,917,2844,55,2844,1,3209,64,413,138,14.52,74.95,0.02
10780,918,3209,37,3209,1,3629,34,736,134,22.94,84.6,0.01
10792,919,3629,51,3629,1,3893,27,546,242,15.05,69.29,0.01
10804,920,3893,59,3893,2,4218,28,967,185,24.84,83.94,0.02
10816,921,4218,32,4218,1,4426,33,683,239,16.19,74.08,0.01
10828,922,4426,37,4426,1,4732,69,850,430,19.2,66.41,0.01
10840,923,4732,42,4732,2,4906,39,1382,384,29.21,78.26,0.01
10852,924,4906,52,4906,2,5040,45,1685,134,34.35,92.63,0.01
10864,925,5040,89,5040,1,5155,40,1708,167,33.89,91.09,0.02
10876,926,5155,40,5155,3,5538,53,886,236,17.19,78.97,0.01
10888,927,5538,73,5538,1,5658,49,2027,150,36.6,93.11,0.01
10900,928,5658,38,5658,3,5763,54,2062,102,36.44,95.29,0.01
10912,929,5763,91,5763,2,5744,68,1977,299,34.31,86.86,0.02
10924,930,5744,51,5744,2,6019,39,995,453,17.32,68.72,0.01
10936,931,6019,66,6019,2,6044,49,1298,451,21.57,74.21,0.01
10948,932,6044,58,6044,3,6043,42,2199,174,36.38,92.67,0.01
10960,933,6043,36,6043,2,5997,91,2121,243,35.1,89.72,0.01
10972,934,5997,55,5997,2,5986,53,1752,535,29.21,76.61,0.01
10984,935,5986,36,5986,2,6038,84,1956,443,32.68,81.53,0.01
10996,936,6038,41,6038,2,5982,44,874,540,14.47,61.81,0.01
11008,937,5982,36,5982,2,6034,57,1442,376,24.11,79.32,0.01
11020,938,6034,62,6034,3,6012,60,1010,539,16.74,65.2,0.01
11032,939,6012,45,6012,2,5812,39,1297,465,21.57,73.61,0.01
11044,940,5812,75,5812,2,5877,59,736,542,12.66,57.59,0.01
11056,941,5877,44,5877,2,5807,61,998,594,16.98,62.69,0.01
11068,942,5807,91,5807,3,5822,75,895,432,15.41,67.45,0.02
11080,943,5822,60,5822,2,5669,46,1373,198,23.58,87.4,0.01
11092,944,5669,92,5669,2,5582,55,374,317,6.6,54.12,0.02
11104,945,5582,53,5582,2,5319,59,600,313,10.75,65.72,0.01
11116,946,5319,46,5319,2,5027,71,431,183,8.1,70.2,0.01
11128,947,5027,72,5027,2,5001,58,769,191,15.3,80.1,0.01
11140,948,5001,60,5001,2,4992,49,515,187,10.3,73.36,0.01
11152,949,4992,42,4992,2,5327,79,724,366,14.5,66.42,0.01
11164,950,5327,42,5327,2,5752,57,533,372,10.01,58.9,0.01
11176,951,5752,52,5752,1,5821,64,1625,333,28.25,82.99,0.01
11188,952,5821,112,5821,3,6074,46,658,352,11.3,65.15,0.02
11200,953,6074,48,6074,2,6077,63,1975,71,32.52,96.53,0.01
11212,954,6077,105,6077,2,6156,73,757,232,12.46,76.54,0.02
11224,955,6156,52,6156,3,6267,53,981,290,15.94,77.18,0.01
11236,956,6267,50,6267,2,6663,50,777,281,12.4,73.44,0.01
11248,957,6663,109,6663,3,6972,57,1049,362,15.74,74.34,0.02
11260,958,6972,56,6972,3,7093,57,1863,266,26.72,87.51,0.01
11272,959,7093,91,7093,2,7292,44,1605,576,22.63,73.59,0.01
11284,960,7292,41,7292,2,7406,60,1850,390,25.37,82.59,0.01
11296,961,7406,110,7406,3,7564,59,2069,360,27.94,85.18,0.01
11308,962,7564,58,7564,3,7912,87,625,616,8.26,50.36,0.01
11320,963,7912,64,7912,2,8054,72,1074,556,13.57,65.89,0.01
11332,964,8054,48,8054,5,8088,62,547,562,6.79,49.32,0.01
11344,965,8088,117,8088,3,7913,65,1089,450,13.46,70.76,0.01
11356,966,7913,71,7913,2,7739,49,710,242,8.97,74.58,0.01
11368,967,7739,143,7739,4,7547,58,1138,458,14.7,71.3,0.02
11380,968,7547,65,7547,3,7409,72,1143,382,15.15,74.95,0.01
11392,969,7409,52,7409,3,7284,64,1875,356,25.31,84.04,0.01
11404,970,7284,45,7284,3,7021,54,699,440,9.6,61.37,0.01
11416,971,7021,133,7021,3,7066,91,1495,188,21.29,88.83,0.02
11428,972,7066,79,7066,3,6995,54,966,647,13.67,59.89,0.01
11440,973,6995,98,6995,3,6892,61,1352,467,19.33,74.33,0.01
11452,974,6892,56,6892,3,6461,90,986,419,14.31,70.18,0.01
11464,975,6461,73,6461,3,6124,59,1313,179,20.32,88.0,0.01
11476,976,6124,59,6124,2,5971,51,1582,231,25.83,87.26,0.01
11488,977,5971,90,5971,2,5605,43,747,211,12.51,77.97,0.02
11500,978,5605,51,5605,2,5329,30,811,303,14.47,72.8,0.01
11512,979,5329,56,5329,1,5295,32,1384,150,25.97,90.22,0.01
11524,980,5295,49,5295,2,5290,32,1482,107,27.99,93.27,0.01
11536,981,5290,54,5290,3,5224,47,1474,41,27.86,97.29,0.01
11548,982,5224,43,5224,2,5268,78,780,397,14.93,66.27,0.01
11560,983,5268,48,5268,3,5142,60,1289,130,24.47,90.84,0.01
11572,984,5142,69,5142,2,5070,38,736,386,14.31,65.6,0.01
11584,985,5070,34,5070,2,5050,31,976,224,19.25,81.33,0.01
11596,986,5050,97,5050,2,4974,53,595,301,11.78,66.41,0.02
11608,987,4974,76,4974,2,4763,37,650,286,13.07,69.44,0.02
11620,988,4763,52,4763,2,4654,54,569,185,11.95,75.46,0.01
11632,989,4654,43,4654,2,4489,42,667,81,14.33,89.17,0.01
11644,990,4489,88,4489,2,4383,37,439,114,9.78,79.39,0.02
11656,991,4383,59,4383,2,4076,39,624,55,14.24,91.9,0.01
11668,992,4076,29,4076,2,4110,72,654,44,16.05,93.7,0.01
11680,993,4110,53,4110,2,4062,48,795,29,19.34,96.48,0.01
11692,994,4062,61,4062,1,4214,56,533,119,13.12,81.75,0.02
11704,995,4214,101,4214,2,4246,59,811,28,19.25,96.66,0.02
11716,996,4246,58,4246,2,4402,60,745,37,17.55,95.27,0.01
11728,997,4402,29,4402,3,4545,149,802,129,18.22,86.14,0.01
11740,998,4545,29,4545,2,4560,55,942,78,20.73,92.35,0.01
11752,999,4560,59,4560,2,4621,89,1037,77,22.74,93.09,0.01
11764,1000,4621,42,4621,2,4628,106,870,116,18.83,88.24,0.01
11776,1001,4628,27,4628,2,4644,47,1330,70,28.74,95.0,0.01
11788,1002,4644,137,4644,2,4596,102,1271,91,27.37,93.32,0.03
11800,1003,4596,30,4596,3,4625,80,1239,153,26.96,89.01,0.01
11812,1004,4625,65,4625,2,4650,49,1163,137,25.15,89.46,0.01
11824,1005,4650,47,4650,2,4590,62,1280,16,27.53,98.77,0.01
11836,1006,4590,36,4590,2,4590,58,1133,126,24.68,89.99,0.01
11848,1007,4590,82,4590,2,4552,53,739,103,16.1,87.77,0.02
11860,1008,4552,77,4552,1,4527,72,959,39,21.07,96.09,0.02
11872,1009,4527,65,4527,2,4724,36,672,79,14.84,89.48,0.01
11884,1010,4724,112,4724,2,4710,154,832,193,17.61,81.17,0.02
11896,1011,4710,54,4710,2,4816,29,700,112,14.86,86.21,0.01
11908,1012,4816,44,4816,2,4919,64,851,170,17.67,83.35,0.01
11920,1013,4919,64,4919,2,4913,82,486,263,9.88,64.89,0.01
11932,1014,4913,47,4913,2,5144,48,778,158,15.84,83.12,0.01
11944,1015,5144,54,5144,1,5476,32,304,249,5.91,54.97,0.01
11956,1016,5476,47,5476,2,5564,85,473,161,8.64,74.61,0.01
11968,1017,5564,63,5564,2,5583,44,214,185,3.85,53.63,0.01
11980,1018,5583,39,5583,1,5874,67,374,168,6.7,69.0,0.01
11992,1019,5874,82,5874,2,6011,37,200,164,3.4,54.95,0.01
12004,1020,6011,94,6011,3,5853,72,306,144,5.09,68.0,0.02
12016,1021,5853,39,5853,2,5906,76,217,119,3.71,64.58,0.01
12028,1022,5906,47,5906,2,5816,88,721,172,12.21,80.74,0.01
12040,1023,5816,88,5816,2,5776,97,843,135,14.49,86.2,0.02
12052,1024,5776,40,5776,2,5854,49,736,251,12.74,74.57,0.01
12064,1025,5854,61,5854,2,5908,79,688,230,11.75,74.95,0.01
12076,1026,5908,82,5908,2,6161,117,133,147,2.25,47.5,0.01
12088,1027,6161,49,6161,3,5834,79,124,93,2.01,57.14,0.01
12100,1028,5834,60,5834,3,5113,52,140,112,2.4,55.56,0.01
12112,1029,5113,113,5113,3,5062,51,293,137,5.73,68.14,0.02
12124,1030,5062,97,5062,2,5122,87,223,125,4.41,64.08,0.02
12136,1031,5122,90,5122,2,4837,38,295,107,5.76,73.38,0.02
12148,1032,4837,106,4837,1,4782,94,548,158,11.33,77.62,0.02
12160,1033,4782,49,4782,2,4753,43,647,95,13.53,87.2,0.01
12172,1034,4753,38,4753,3,4656,69,648,140,13.63,82.23,0.01
12184,1035,4656,88,4656,1,4793,88,739,119,15.87,86.13,0.02
12196,1036,4793,115,4793,2,4749,53,740,163,15.44,81.95,0.02
12208,1037,4749,79,4749,2,4699,54,731,155,15.39,82.51,0.02
12220,1038,4699,53,4699,2,4359,62,215,139,4.58,60.73,0.01
12232,1039,4359,70,4359,2,3844,77,376,120,8.63,75.81,0.02
12244,1040,3844,91,3844,2,3434,67,125,108,3.25,53.65,0.02
12256,1041,3434,31,3434,2,3296,53,192,125,5.59,60.57,0.01
12268,1042,3296,76,3296,1,3303,58,418,99,12.68,80.85,0.02
12280,1043,3303,57,3303,1,3026,62,347,101,10.51,77.46,0.02
12292,1044,3026,53,3026,1,2805,43,171,111,5.65,60.64,0.02
12304,1045,2805,50,2805,1,2721,54,371,81,13.23,82.08,0.02
12316,1046,2721,38,2721,1,2615,63,112,106,4.12,51.38,0.01
12328,1047,2615,30,2615,1,2658,29,263,45,10.06,85.39,0.01
12340,1048,2658,146,2658,1,2627,31,389,93,14.64,80.71,0.05
12352,1049,2627,69,2627,2,2602,56,398,81,15.15,83.09,0.03
12364,1050,2602,54,2602,1,2616,50,429,69,16.49,86.14,0.02
12376,1051,2616,55,2616,1,2638,24,329,64,12.58,83.72,0.02
12388,1052,2638,62,2638,2,2639,33,237,74,8.98,76.21,0.02
12400,1053,2639,49,2639,1,2312,57,224,91,8.49,71.11,0.02
12412,1054,2312,28,2312,1,2158,68,391,72,16.91,84.45,0.01
12424,1055,2158,82,2158,1,2091,42,138,100,6.39,57.98,0.04
12436,1056,2091,75,2091,2,2169,54,288,105,13.77,73.28,0.04
12448,1057,2169,18,2169,1,2299,32,193,111,8.9,63.49,0.01
12460,1058,2299,45,2299,1,2323,69,260,129,11.31,66.84,0.02
12472,1059,2323,43,2323,1,2295,55,135,112,5.81,54.66,0.02
12484,1060,2295,56,2295,1,2398,48,304,78,13.25,79.58,0.02
12496,1061,2398,55,2398,1,2568,65,243,93,10.13,72.32,0.02
12508,1062,2568,53,2568,1,2799,79,339,116,13.2,74.51,0.02
12520,1063,2799,24,2799,1,3186,30,290,127,10.36,69.54,0.01
12532,1064,3186,50,3186,2,3130,52,362,178,11.36,67.04,0.02
12544,1065,3130,58,3130,1,2711,41,216,128,6.9,62.79,0.02
12556,1066,2711,61,2711,1,2537,41,261,95,9.63,73.31,0.02
12568,1067,2537,51,2537,1,2369,58,169,79,6.66,68.15,0.02
12580,1068,2369,46,2369,1,2401,55,247,104,10.43,70.37,0.02
12592,1069,2401,43,2401,2,2381,45,468,47,19.49,90.87,0.02
12604,1070,2381,55,2381,1,2264,50,436,23,18.31,94.99,0.02
12616,1071,2264,30,2264,1,2251,59,434,50,19.17,89.67,0.01
12628,1072,2251,70,2251,1,2301,50,251,83,11.15,75.15,0.03
12640,1073,2301,64,2301,1,2339,67,447,35,19.43,92.74,0.03
12652,1074,2339,62,2339,1,2145,40,132,77,5.64,63.16,0.03
12664,1075,2145,55,2145,1,2349,45,191,111,8.9,63.25,0.03
12676,1076,2349,21,2349,1,2268,74,152,84,6.47,64.41,0.01
12688,1077,2268,74,2268,1,2161,73,257,79,11.33,76.49,0.03
12700,1078,2161,46,2161,1,2016,54,134,79,6.2,62.91,0.02
12712,1079,2016,98,2016,1,1927,46,178,94,8.83,65.44,0.05
12724,1080,1927,64,1927,1,1931,53,379,60,19.67,86.33,0.03
12736,1081,1931,58,1931,1,1929,33,365,58,18.9,86.29,0.03
12748,1082,1929,19,1929,1,1825,34,346,115,17.94,75.05,0.01
12760,1083,1825,54,1825,1,1762,34,143,98,7.84,59.34,0.03
12772,1084,1762,73,1762,0,1596,43,246,49,13.96,83.39,0.04
12784,1085,1596,55,1596,1,1456,59,128,73,8.02,63.68,0.03
12796,1086,1456,48,1456,1,1387,44,185,42,12.71,81.5,0.03
12808,1087,1387,47,1387,1,1279,39,121,73,8.72,62.37,0.03
12820,1088,1279,22,1279,1,1257,17,208,48,16.26,81.25,0.02
12832,1089,1257,41,1257,1,1202,27,138,80,10.98,63.3,0.03
12844,1090,1202,46,1202,1,1210,37,174,78,14.48,69.05,0.04
12856,1091,1210,50,1210,1,1138,33,113,45,9.34,71.52,0.04
12868,1092,1138,54,1138,0,1206,46,184,48,16.17,79.31,0.05
12880,1093,1206,36,1206,0,1250,40,114,73,9.45,60.96,0.03
12892,1094,1250,53,1250,0,1199,71,142,58,11.36,71.0,0.04
12904,1095,1199,33,1199,1,1095,23,89,52,7.42,63.12,0.03
12916,1096,1095,28,1095,0,1045,27,225,14,20.55,94.14,0.03
12928,1097,1045,29,1045,0,1025,35,127,60,12.15,67.91,0.03
12940,1098,1025,57,1025,0,1058,46,77,68,7.51,53.1,0.06
12952,1099,1058,31,1058,0,1037,45,263,15,24.86,94.6,0.03
12964,1100,1037,33,1037,0,1068,55,228,32,21.99,87.69,0.03
12976,1101,1068,31,1068,1,966,25,227,41,21.25,84.7,0.03
12988,1102,966,52,966,0,966,42,92,49,9.52,65.25,0.05
13000,1103,966,38,966,1,820,30,120,34,12.42,77.92,0.04
13012,1104,820,51,820,0,807,28,76,32,9.27,70.37,0.06
13024,1105,807,65,807,0,793,34,139,34,17.22,80.35,0.08
13036,1106,793,37,793,0,763,33,177,3,22.32,98.33,0.05
13048,1107,763,45,763,1,785,43,114,10,14.94,91.94,0.06
13060,1108,785,37,785,0,833,58,175,5,22.29,97.22,0.05
13072,1109,833,39,833,0,777,42,74,31,8.88,70.48,0.05
13084,1110,777,18,777,1,833,30,92,26,11.84,77.97,0.02
13096,1111,833,25,833,0,744,29,62,25,7.44,71.26,0.03
13108,1112,744,79,744,0,718,47,101,14,13.58,87.83,0.11
13120,1113,718,15,718,1,669,46,131,21,18.25,86.18,0.02
13132,1114,669,44,669,1,689,39,92,13,13.75,87.62,0.07
13144,1115,689,70,689,0,628,45,144,14,20.9,91.14,0.1
13156,1116,628,16,628,0,612,29,55,16,8.76,77.46,0.03
13168,1117,612,39,612,1,612,65,92,15,15.03,85.98,0.06
13180,1118,612,32,612,0,572,43,45,9,7.35,83.33,0.05
13192,1119,572,25,572,0,508,69,63,18,11.01,77.78,0.04
13204,1120,508,47,508,0,554,40,99,20,19.49,83.19,0.09
13216,1121,554,35,554,0,521,44,102,7,18.41,93.58,0.06
13228,1122,521,45,521,1,475,18,60,10,11.52,85.71,0.09
13240,1123,475,33,475,0,438,28,88,14,18.53,86.27,0.07
13252,1124,438,34,438,0,370,38,50,7,11.42,87.72,0.08
13264,1125,370,35,370,0,398,26,80,9,21.62,89.89,0.09
13276,1126,398,48,398,0,411,19,56,12,14.07,82.35,0.12
13288,1127,411,22,411,1,415,37,82,4,19.95,95.35,0.05
13300,1128,415,31,415,1,393,31,91,7,21.93,92.86,0.07
13312,1129,393,39,393,0,373,40,102,4,25.95,96.23,0.1
13324,1130,373,61,373,0,362,31,51,13,13.67,79.69,0.16
13336,1131,362,43,362,1,351,18,72,4,19.89,94.74,0.12
13348,1132,351,43,351,0,360,53,59,15,16.81,79.73,0.12
13360,1133,360,34,360,0,379,36,96,6,26.67,94.12,0.09
13372,1134,379,32,379,1,386,46,125,9,32.98,93.28,0.08
13384,1135,386,14,386,0,341,36,102,5,26.42,95.33,0.04
13396,1136,341,38,341,0,360,46,81,11,23.75,88.04,0.11
13408,1137,360,57,360,1,367,45,58,7,16.11,89.23,0.16
13420,1138,367,57,367,0,371,18,98,11,26.7,89.91,0.16
13432,1139,371,59,371,0,401,22,114,19,30.73,85.71,0.16
13444,1140,401,41,401,0,354,39,117,2,29.18,98.32,0.1
13456,1141,354,15,354,0,371,16,121,5,34.18,96.03,0.04
13468,1142,371,54,371,1,347,48,113,7,30.46,94.17,0.15
13480,1143,347,59,347,1,338,52,65,2,18.73,97.01,0.17
13492,1144,338,48,338,1,341,39,73,3,21.6,96.05,0.14
13504,1145,341,45,341,0,309,30,47,12,13.78,79.66,0.13
13516,1146,309,30,309,0,287,24,64,4,20.71,94.12,0.1
13528,1147,287,78,287,0,285,38,81,2,28.22,97.59,0.27
13540,1148,285,21,285,0,281,13,77,1,27.02,98.72,0.07
13552,1149,281,40,281,0,277,27,38,8,13.52,82.61,0.14
13564,1150,277,109,277,0,275,45,63,3,22.74,95.45,0.39
13576,1151,275,29,275,0,268,40,71,8,25.82,89.87,0.11
13588,1152,268,35,268,0,256,29,92,1,34.33,98.92,0.13
13600,1153,256,53,256,0,253,35,87,1,33.98,98.86,0.21
13612,1154,253,46,253,1,267,38,76,9,30.04,89.41,0.18
13624,1155,267,40,267,0,259,34,50,7,18.73,87.72,0.15
13636,1156,259,37,259,0,252,14,67,20,25.87,77.01,0.14
13648,1157,252,19,252,0,258,43,36,12,14.29,75.0,0.08
13660,1158,258,26,258,0,272,55,53,16,20.54,76.81,0.1
13672,1159,272,36,272,0,279,19,96,5,35.29,95.05,0.13
13684,1160,279,48,279,0,266,22,64,22,22.94,74.42,0.17
13696,1161,266,51,266,0,256,61,73,2,27.44,97.33,0.19
13708,1162,256,25,256,0,258,18,76,1,29.69,98.7,0.1
13720,1163,258,25,258,1,262,31,92,4,35.66,95.83,0.1
13732,1164,262,72,262,1,258,25,70,1,26.72,98.59,0.27
13744,1165,258,44,258,0,249,35,76,7,29.46,91.57,0.17
13756,1166,249,52,249,0,214,13,20,3,8.03,86.96,0.21
13768,1167,214,25,214,1,202,51,23,3,10.75,88.46,0.12
13780,1168,202,39,202,0,200,104,46,4,22.77,92.0,0.19
13792,1169,200,42,200,0,203,24,54,1,27.0,98.18,0.21
13804,1170,203,56,203,0,180,46,43,5,21.18,89.58,0.28
13816,1171,180,41,180,0,187,21,29,3,16.11,90.62,0.23
13828,1172,187,47,187,0,184,37,39,5,20.86,88.64,0.25
13840,1173,184,73,184,1,185,38,52,3,28.26,94.55,0.4
13852,1174,185,39,185,0,175,37,48,6,25.95,88.89,0.21
13864,1175,175,29,175,1,181,31,19,6,10.86,76.0,0.17
13876,1176,181,32,181,0,181,63,32,4,17.68,88.89,0.18
13888,1177,181,75,181,0,160,40,19,5,10.5,79.17,0.41
13900,1178,160,45,160,0,159,35,30,6,18.75,83.33,0.28
13912,1179,159,31,159,0,144,46,12,5,7.55,70.59,0.19
13924,1180,144,12,144,0,142,17,11,0,7.64,100.0,0.08
13947,1182,142,47,121,0,141,56,33,1,23.24,97.06,0.33
13959,1183,141,31,141,0,133,41,32,3,22.7,91.43,0.22
13971,1184,133,43,133,0,148,42,27,6,20.3,81.82,0.32
13983,1185,148,21,148,0,141,18,32,1,21.62,96.97,0.14
13995,1186,141,49,141,0,146,77,15,8,10.64,65.22,0.35
14007,1187,146,46,146,0,169,39,39,5,26.71,88.64,0.32
14019,1188,169,36,169,0,158,36,37,5,21.89,88.1,0.21
14031,1189,158,21,158,0,178,29,43,9,27.22,82.69,0.13
14043,1190,178,14,178,0,155,17,39,3,21.91,92.86,0.08
14055,1191,155,27,155,0,166,52,51,2,32.9,96.23,0.17
14067,1192,166,15,166,1,170,45,27,2,16.27,93.1,0.09
14079,1193,170,37,170,0,196,39,32,2,18.82,94.12,0.22
14091,1194,196,41,196,0,197,38,47,5,23.98,90.38,0.21
14103,1195,197,30,197,1,210,11,45,8,22.84,84.91,0.15
14115,1196,210,113,210,0,186,41,54,4,25.71,93.1,0.54
14127,1197,186,28,186,1,176,46,47,6,25.27,88.68,0.15
14139,1198,176,39,176,0,203,55,28,7,15.91,80.0,0.22
14151,1199,203,51,203,0,159,48,20,7,9.85,74.07,0.25
14163,1200,159,31,159,0,162,12,22,4,13.84,84.62,0.19
14175,1201,162,18,162,0,172,48,39,7,24.07,84.78,0.11
14187,1202,172,25,172,0,182,32,47,1,27.33,97.92,0.15
14199,1203,182,33,182,0,196,44,32,8,17.58,80.0,0.18
14211,1204,196,51,196,0,184,36,53,8,27.04,86.89,0.26
14223,1205,184,14,184,0,190,13,24,8,13.04,75.0,0.08
14235,1206,190,89,190,0,156,35,27,2,14.21,93.1,0.47
14247,1207,156,35,156,0,170,35,38,7,24.36,84.44,0.22
14259,1208,170,47,170,0,144,54,39,2,22.94,95.12,0.28
14271,1209,144,37,144,0,148,34,41,1,28.47,97.62,0.26
14283,1210,148,29,148,0,138,13,29,5,19.59,85.29,0.2
14295,1211,138,30,138,0,151,47,21,1,15.22,95.45,0.22
14307,1212,151,37,151,1,170,51,47,0,31.13,100.0,0.25
14319,1213,170,54,170,0,161,30,43,2,25.29,95.56,0.32
14331,1214,161,47,161,1,157,36,38,6,23.6,86.36,0.29
14343,1215,157,27,157,0,177,15,37,0,23.57,100.0,0.17
14355,1216,177,52,177,0,171,79,17,7,9.6,70.83,0.29
14367,1217,171,40,171,1,163,43,21,6,12.28,77.78,0.23
14390,1219,163,40,146,0,175,37,20,3,12.27,86.96,0.25
14402,1220,175,20,175,0,177,14,29,9,16.57,76.32,0.11
14414,1221,177,15,177,0,166,51,24,2,13.56,92.31,0.08
14426,1222,166,26,166,0,150,39,23,0,13.86,100.0,0.16
14438,1223,150,37,150,0,144,45,18,2,12.0,90.0,0.25
14450,1224,144,48,144,1,150,85,35,2,24.31,94.59,0.33
14462,1225,150,39,150,0,169,43,19,3,12.67,86.36,0.26
14474,1226,169,38,169,0,136,79,26,4,15.38,86.67,0.22
14486,1227,136,54,136,0,164,37,26,2,19.12,92.86,0.4
14498,1228,164,30,164,0,173,36,28,9,17.07,75.68,0.18
14510,1229,173,28,173,0,131,20,24,3,13.87,88.89,0.16
14522,1230,131,29,131,0,146,56,26,3,19.85,89.66,0.22
14534,1231,146,14,146,0,132,43,23,8,15.75,74.19,0.1
14546,1232,132,29,132,0,106,62,28,9,21.21,75.68,0.22
14558,1233,106,21,106,0,106,75,19,7,17.92,73.08,0.2
14570,1234,106,39,106,0,117,41,31,3,29.25,91.18,0.37
14582,1235,117,38,117,0,106,32,27,2,23.08,93.1,0.32
14594,1236,106,42,106,0,105,56,32,13,30.19,71.11,0.4
14606,1237,105,31,105,0,102,44,28,0,26.67,100.0,0.3
14618,1238,102,37,102,1,104,35,19,9,18.63,67.86,0.36
14630,1239,104,20,104,0,97,13,17,1,16.35,94.44,0.19
14642,1240,97,18,97,0,113,39,31,0,31.96,100.0,0.19
14654,1241,113,36,113,1,98,70,33,0,29.2,100.0,0.32
14666,1242,98,26,98,0,106,30,33,2,33.67,94.29,0.27
14678,1243,106,39,106,0,107,28,32,3,30.19,91.43,0.37
14690,1244,107,38,107,0,87,66,30,0,28.04,100.0,0.36
14702,1245,87,59,87,0,95,85,24,4,27.59,85.71,0.68
14714,1246,95,35,95,0,97,30,34,1,35.79,97.14,0.37
14726,1247,97,45,97,0,114,35,38,5,39.18,88.37,0.46
14738,1248,114,20,114,0,118,24,39,1,34.21,97.5,0.18
14750,1249,118,50,118,0,134,31,31,4,26.27,88.57,0.42
14762,1250,134,44,134,0,128,33,38,3,28.36,92.68,0.33
14774,1251,128,49,128,0,143,33,31,5,24.22,86.11,0.38
14786,1252,143,42,143,0,142,27,37,3,25.87,92.5,0.29
14798,1253,142,16,142,0,140,28,35,9,24.65,79.55,0.11
14810,1254,140,18,140,0,170,21,51,2,36.43,96.23,0.13
14822,1255,170,38,170,1,192,27,59,2,34.71,96.72,0.22
14834,1256,192,56,192,0,190,49,73,0,38.02,100.0,0.29
14846,1257,190,59,190,1,196,45,79,2,41.58,97.53,0.31
14858,1258,196,27,196,0,202,27,83,0,42.35,100.0,0.14
14870,1259,202,36,202,0,211,13,66,21,32.67,75.86,0.18
14882,1260,211,49,211,0,202,34,65,6,30.81,91.55,0.23
14894,1261,202,57,202,0,226,45,54,8,26.73,87.1,0.28
14906,1262,226,27,226,1,225,21,64,6,28.32,91.43,0.12
14918,1263,225,25,225,1,238,55,62,10,27.56,86.11,0.11
14930,1264,238,33,238,0,235,39,68,13,28.57,83.95,0.14
14942,1265,235,51,235,0,278,44,70,7,29.79,90.91,0.22
14954,1266,278,29,278,0,281,20,91,6,32.73,93.81,0.1
14966,1267,281,15,281,0,281,50,100,8,35.59,92.59,0.05
14978,1268,281,30,281,1,293,28,104,10,37.01,91.23,0.11
14990,1269,293,47,293,1,312,23,114,2,38.91,98.28,0.16
15002,1270,312,54,312,1,312,70,108,12,34.62,90.0,0.17
15014,1271,312,30,312,0,316,21,114,4,36.54,96.61,0.1
15026,1272,316,21,316,0,279,43,106,0,33.54,100.0,0.07
15038,1273,279,21,279,1,324,51,98,6,35.13,94.23,0.08
15050,1274,324,109,324,1,305,52,97,8,29.94,92.38,0.34
15062,1275,305,15,305,0,327,20,94,28,30.82,77.05,0.05
15074,1276,327,32,327,0,322,27,115,6,35.17,95.04,0.1
15086,1277,322,41,322,0,322,29,78,23,24.22,77.23,0.13
15098,1278,322,46,322,0,267,29,74,15,22.98,83.15,0.14
15110,1279,267,56,267,0,277,35,79,11,29.59,87.78,0.21
15122,1280,277,146,277,1,260,59,74,14,26.71,84.09,0.53
15134,1281,260,58,260,0,293,21,78,14,30.0,84.78,0.22
15146,1282,293,68,293,0,289,54,107,3,36.52,97.27,0.23
15158,1283,289,30,289,0,295,14,99,10,34.26,90.83,0.1
15170,1284,295,26,295,0,306,30,117,5,39.66,95.9,0.09
15182,1285,306,22,306,0,341,44,95,7,31.05,93.14,0.07
15194,1286,341,94,341,0,359,55,135,3,39.59,97.83,0.28
15206,1287,359,58,359,0,391,16,108,25,30.08,81.2,0.16
15218,1288,391,53,391,0,461,40,155,7,39.64,95.68,0.14
15230,1289,461,39,461,0,461,40,153,7,33.19,95.62,0.08
15242,1290,461,53,461,0,538,47,181,8,39.26,95.77,0.11
15254,1291,538,61,538,1,593,31,152,8,28.25,95.0,0.11
15266,1292,593,37,593,1,607,59,165,21,27.82,88.71,0.06
15278,1293,607,46,607,0,611,38,144,13,23.72,91.72,0.08
15290,1294,611,46,611,0,590,35,188,13,30.77,93.53,0.08
15302,1295,590,33,590,0,619,48,164,7,27.8,95.91,0.06
15314,1296,619,18,619,1,550,22,171,8,27.63,95.53,0.03
15326,1297,550,30,550,0,564,40,219,2,39.82,99.1,0.05
15338,1298,564,45,564,0,541,41,141,15,25.0,90.38,0.08
15350,1299,541,27,541,1,525,42,151,13,27.91,92.07,0.05
15362,1300,525,45,525,1,505,55,119,31,22.67,79.33,0.09
15374,1301,505,26,505,1,521,17,157,33,31.09,82.63,0.05
15386,1302,521,27,521,1,478,19,149,3,28.6,98.03,0.05
15398,1303,478,45,478,1,424,25,145,22,30.33,86.83,0.09
15410,1304,424,36,424,0,384,39,142,3,33.49,97.93,0.08
15422,1305,384,38,384,1,357,27,132,3,34.38,97.78,0.1
15434,1306,357,36,357,1,359,34,117,9,32.77,92.86,0.1
15446,1307,359,42,359,0,336,25,140,3,39.0,97.9,0.12
15458,1308,336,17,336,0,308,67,98,17,29.17,85.22,0.05
15470,1309,308,28,308,1,271,48,105,0,34.09,100.0,0.09
15482,1310,271,33,271,1,233,36,66,3,24.35,95.65,0.12
15494,1311,233,18,233,0,190,13,59,1,25.32,98.33,0.08
15506,1312,190,35,190,1,190,23,63,9,33.16,87.5,0.18
15518,1313,190,48,190,0,175,36,69,4,36.32,94.52,0.25
15530,1314,175,39,175,0,179,54,54,2,30.86,96.43,0.22
15542,1315,179,25,179,1,144,43,55,0,30.73,100.0,0.14
15554,1316,144,33,144,0,155,32,50,6,34.72,89.29,0.23
15566,1317,155,37,155,1,162,63,59,7,38.06,89.39,0.24
15578,1318,162,14,162,1,173,24,62,0,38.27,100.0,0.09
15590,1319,173,30,173,0,160,70,51,3,29.48,94.44,0.17
15602,1320,160,34,160,0,167,32,55,6,34.38,90.16,0.21
15614,1321,167,35,167,0,168,23,72,1,43.11,98.63,0.21
15626,1322,168,17,168,0,148,24,46,1,27.38,97.87,0.1
15638,1323,148,39,148,0,162,50,47,11,31.76,81.03,0.26
15650,1324,162,21,162,0,172,24,60,6,37.04,90.91,0.13
15662,1325,172,15,172,0,182,35,71,11,41.28,86.59,0.09
15674,1326,182,41,182,0,194,39,59,11,32.42,84.29,0.23
15686,1327,194,33,194,0,191,30,88,3,45.36,96.7,0.17
15698,1328,191,42,191,0,194,48,71,8,37.17,89.87,0.22
15710,1329,194,45,194,0,194,63,70,3,36.08,95.89,0.23
15722,1330,194,18,194,0,205,24,77,10,39.69,88.51,0.09
15734,1331,205,39,205,0,207,37,75,21,36.59,78.12,0.19
15746,1332,207,56,207,0,203,31,99,5,47.83,95.19,0.27
15758,1333,203,22,203,0,194,31,86,8,42.36,91.49,0.11
15770,1334,194,16,194,0,201,32,68,2,35.05,97.14,0.08
15782,1335,201,42,201,0,188,25,70,5,34.83,93.33,0.21
15794,1336,188,14,188,0,195,21,66,3,35.11,95.65,0.07
15806,1337,195,40,195,0,184,73,72,3,36.92,96.0,0.21
15818,1338,184,48,184,0,184,31,78,1,42.39,98.73,0.26
15830,1339,184,37,184,0,194,49,69,3,37.5,95.83,0.2
15842,1340,194,71,194,0,202,39,74,7,38.14,91.36,0.37
15854,1341,202,22,202,1,210,33,61,3,30.2,95.31,0.11
15866,1342,210,33,210,1,191,38,74,0,35.24,100.0,0.16
15878,1343,191,30,191,0,193,35,70,6,36.65,92.11,0.16
15890,1344,193,22,193,0,182,64,65,2,33.68,97.01,0.11
15902,1345,182,48,182,0,169,15,39,8,21.43,82.98,0.26
15914,1346,169,19,169,0,166,16,39,5,23.08,88.64,0.11
15926,1347,166,59,166,1,164,25,61,1,36.75,98.39,0.36
15938,1348,164,16,164,0,153,48,55,2,33.54,96.49,0.1
15950,1349,153,67,153,0,158,43,57,5,37.25,91.94,0.44
15962,1350,158,40,158,0,161,40,48,1,30.38,97.96,0.25
15974,1351,161,42,161,1,163,43,39,7,24.22,84.78,0.26
15986,1352,163,58,163,0,167,25,48,9,29.45,84.21,0.36
15998,1353,167,12,167,0,159,13,43,5,25.75,89.58,0.07
16010,1354,159,65,159,0,151,34,46,2,28.93,95.83,0.41
16022,1355,151,53,151,0,162,48,35,3,23.18,92.11,0.35
16034,1356,162,37,162,0,153,44,32,4,19.75,88.89,0.23
16046,1357,153,43,153,1,133,42,33,1,21.57,97.06,0.28
16058,1358,133,37,133,0,129,28,33,1,24.81,97.06,0.28
16070,1359,129,16,129,0,123,29,39,10,30.23,79.59,0.12
16082,1360,123,64,123,0,110,46,21,2,17.07,91.3,0.52
16094,1361,110,53,110,0,110,41,17,2,15.45,89.47,0.48
16106,1362,110,34,110,0,83,28,18,3,16.36,85.71,0.31
16118,1363,83,31,83,0,93,25,24,0,28.92,100.0,0.37
16130,1364,93,46,93,0,81,37,26,3,27.96,89.66,0.49
16142,1365,81,57,81,0,95,31,17,3,20.99,85.0,0.7
16154,1366,95,12,95,0,81,15,24,3,25.26,88.89,0.13
16166,1367,81,43,81,0,85,37,29,2,35.8,93.55,0.53
16178,1368,85,21,85,0,75,29,19,1,22.35,95.0,0.25
16190,1369,75,45,75,0,66,15,18,5,24.0,78.26,0.6
16202,1370,66,38,66,0,54,51,17,1,25.76,94.44,0.58
16214,1371,54,32,54,0,55,30,25,0,46.3,100.0,0.59
16237,1373,55,52,72,0,52,31,17,1,30.91,94.44,0.95
16249,1374,52,33,52,0,61,53,15,2,28.85,88.24,0.63
16261,1375,61,37,61,0,68,33,16,1,26.23,94.12,0.61
16273,1376,68,41,68,1,76,76,24,1,35.29,96.0,0.6
16285,1377,76,45,76,0,81,31,20,0,26.32,100.0,0.59
16297,1378,81,39,81,0,99,47,20,4,24.69,83.33,0.48
16309,1379,99,20,99,0,84,24,28,1,28.28,96.55,0.2
16321,1380,84,47,84,0,93,19,27,0,32.14,100.0,0.56
16333,1381,93,16,93,0,95,32,29,2,31.18,93.55,0.17
16345,1382,95,37,95,0,96,95,18,3,18.95,85.71,0.39
16357,1383,96,36,96,0,102,57,19,8,19.79,70.37,0.38
16369,1384,102,52,102,0,87,56,31,0,30.39,100.0,0.51
16381,1385,87,36,87,0,102,29,28,4,32.18,87.5,0.41
16393,1386,102,51,102,0,91,46,28,3,27.45,90.32,0.5
16405,1387,91,51,91,0,83,41,19,5,20.88,79.17,0.56
16428,1389,83,33,71,1,73,47,17,2,20.48,89.47,0.4
16440,1390,73,28,73,0,56,24,14,1,19.18,93.33,0.38
16452,1391,56,17,56,0,62,31,17,4,30.36,80.95,0.3
16464,1392,62,40,62,1,66,32,19,1,30.65,95.0,0.65
17261,1468,66,39,2079,1,3125,34,17,49,25.76,25.76,0.59
17339,1475,3125,93,4896,2,4696,44,27,85,0.86,24.11,0.03
17384,1479,4696,69,1788,0,1730,54,10,46,0.21,17.86,0.01
17462,1486,1730,53,52,0,62,43,13,3,0.75,81.25,0.03
17474,1487,62,45,62,0,59,43,15,2,24.19,88.24,0.73
17497,1489,59,27,102,1,122,50,23,2,38.98,92.0,0.46
17509,1490,122,76,122,0,137,26,23,2,18.85,92.0,0.62
17521,1491,137,24,137,0,116,16,32,6,23.36,84.21,0.18
17533,1492,116,48,116,0,114,82,30,3,25.86,90.91,0.41
17545,1493,114,36,114,0,111,47,25,2,21.93,92.59,0.32
17557,1494,111,23,111,0,107,35,18,2,16.22,90.0,0.21
17569,1495,107,25,107,0,99,12,26,1,24.3,96.3,0.23
17581,1496,99,37,99,0,111,28,18,2,18.18,90.0,0.37
17593,1497,111,48,111,0,101,49,21,3,18.92,87.5,0.43
17605,1498,101,38,101,0,88,26,20,0,19.8,100.0,0.38
17617,1499,88,37,88,0,83,43,22,1,25.0,95.65,0.42
17629,1500,83,49,83,0,76,31,22,1,26.51,95.65,0.59
17641,1501,76,27,76,0,74,27,23,1,30.26,95.83,0.36
17675,1504,74,45,59,0,71,30,15,3,20.27,83.33,0.61
17687,1505,71,26,71,0,66,33,18,6,25.35,75.0,0.37
17699,1506,66,30,66,0,73,41,17,1,25.76,94.44,0.45
17711,1507,73,40,73,0,67,35,20,0,27.4,100.0,0.55
17723,1508,67,26,67,0,62,16,18,0,26.87,100.0,0.39
17735,1509,62,39,62,1,80,54,25,3,40.32,89.29,0.63
17747,1510,80,47,80,0,76,39,18,3,22.5,85.71,0.59
17759,1511,76,46,76,0,97,36,24,3,31.58,88.89,0.61
17771,1512,97,43,97,0,101,13,29,2,29.9,93.55,0.44
17783,1513,101,52,101,0,119,20,33,9,32.67,78.57,0.51
17795,1514,119,22,119,0,141,80,36,5,30.25,87.8,0.18
17807,1515,141,44,141,0,139,38,43,2,30.5,95.56,0.31
17819,1516,139,48,139,1,158,32,37,11,26.62,77.08,0.35
17831,1517,158,64,158,0,139,21,46,7,29.11,86.79,0.41
17843,1518,139,16,139,0,174,64,56,0,40.29,100.0,0.12
17855,1519,174,42,174,0,152,32,50,2,28.74,96.15,0.24
17867,1520,152,33,152,0,143,42,53,2,34.87,96.36,0.22
17879,1521,143,68,143,0,132,25,33,3,23.08,91.67,0.48
17891,1522,132,32,132,0,110,15,18,5,13.64,78.26,0.24
17903,1523,110,28,110,0,85,55,18,5,16.36,78.26,0.25
17915,1524,85,48,85,0,74,31,18,2,21.18,90.0,0.56
17949,1527,74,20,59,0,59,50,17,2,22.97,89.47,0.27
17961,1528,59,31,59,0,49,31,15,4,25.42,78.95,0.53
17973,1529,49,49,49,0,66,28,24,3,48.98,88.89,1.0
17985,1530,66,41,66,0,67,38,18,0,27.27,100.0,0.62
17997,1531,67,54,67,0,83,38,23,1,34.33,95.83,0.81
18009,1532,83,36,83,0,99,56,23,6,27.71,79.31,0.43
18021,1533,99,52,99,0,101,45,24,6,24.24,80.0,0.53
18033,1534,101,16,101,0,104,45,36,1,35.64,97.3,0.16
18045,1535,104,50,104,0,124,54,41,5,39.42,89.13,0.48
18057,1536,124,45,124,0,133,42,40,2,32.26,95.24,0.36
18069,1537,133,55,133,0,147,49,39,7,29.32,84.78,0.41
18081,1538,147,17,147,0,156,17,58,4,39.46,93.55,0.12
18093,1539,156,48,156,0,163,33,68,3,43.59,95.77,0.31
18105,1540,163,28,163,0,179,39,77,5,47.24,93.9,0.17
18117,1541,179,40,179,0,176,50,51,7,28.49,87.93,0.22
18129,1542,176,60,176,1,172,42,46,8,26.14,85.19,0.34
18141,1543,172,21,172,0,193,19,70,13,40.7,84.34,0.12
18153,1544,193,47,193,0,159,28,38,7,19.69,84.44,0.24
18165,1545,159,34,159,0,139,53,37,0,23.27,100.0,0.21
18177,1546,139,67,139,0,146,44,26,6,18.71,81.25,0.48
18189,1547,146,63,146,0,137,43,32,3,21.92,91.43,0.43
18201,1548,137,18,137,0,148,22,50,5,36.5,90.91,0.13
18213,1549,148,34,148,0,139,16,39,2,26.35,95.12,0.23
18225,1550,139,66,139,0,129,17,21,3,15.11,87.5,0.47
18237,1551,129,30,129,0,131,39,33,0,25.58,100.0,0.23
18249,1552,131,78,131,0,135,43,32,7,24.43,82.05,0.6
18261,1553,135,30,135,0,142,27,34,2,25.19,94.44,0.22
18284,1555,142,17,110,0,114,40,29,1,20.42,96.67,0.12
18296,1556,114,45,114,0,109,23,10,1,8.77,90.91,0.39
18308,1557,109,13,109,0,70,26,13,0,11.93,100.0,0.12
18320,1558,70,36,70,0,88,12,13,4,18.57,76.47,0.51
18332,1559,88,54,88,0,77,33,15,1,17.05,93.75,0.61
18344,1560,77,26,77,0,85,35,26,4,33.77,86.67,0.34
18356,1561,85,26,85,0,65,32,16,1,18.82,94.12,0.31
18390,1564,65,26,80,0,74,20,15,1,23.08,93.75,0.4
18413,1566,74,46,72,0,79,53,15,2,20.27,88.24,0.62
18436,1568,79,25,94,0,96,36,13,2,16.46,86.67,0.32
18448,1569,96,17,96,0,86,13,10,0,10.42,100.0,0.18
18471,1571,86,36,84,0,86,39,16,1,18.6,94.12,0.42
18483,1572,86,17,86,0,102,18,14,2,16.28,87.5,0.2
18495,1573,102,71,102,0,102,49,23,1,22.55,95.83,0.7
18507,1574,102,28,102,0,103,36,13,1,12.75,92.86,0.27
18519,1575,103,80,103,0,101,48,14,2,13.59,87.5,0.78
18531,1576,101,33,101,0,113,21,16,3,15.84,84.21,0.33
18543,1577,113,15,113,0,104,21,17,1,15.04,94.44,0.13
18555,1578,104,31,104,0,97,31,23,5,22.12,82.14,0.3
18567,1579,97,31,97,0,105,43,19,1,19.59,95.0,0.32
18590,1581,105,68,102,0,106,47,14,3,13.33,82.35,0.65
18602,1582,106,43,106,0,100,18,14,3,13.21,82.35,0.41
18614,1583,100,13,100,0,94,22,15,1,15.0,93.75,0.13
18626,1584,94,48,94,0,85,24,19,2,20.21,90.48,0.51
18638,1585,85,52,85,0,91,40,13,2,15.29,86.67,0.61
18650,1586,91,41,91,0,86,69,22,0,24.18,100.0,0.45
18673,1588,86,51,90,0,104,17,17,1,19.77,94.44,0.59
18685,1589,104,63,104,0,101,29,25,1,24.04,96.15,0.61
18697,1590,101,63,101,0,107,49,27,1,26.73,96.43,0.62
18709,1591,107,39,107,0,122,53,11,1,10.28,91.67,0.36
18721,1592,122,75,122,0,108,55,13,1,10.66,92.86,0.61
18733,1593,108,19,108,1,117,13,22,3,20.37,88.0,0.18
18745,1594,117,53,117,0,102,33,18,5,15.38,78.26,0.45
18757,1595,102,73,102,0,109,45,15,3,14.71,83.33,0.72
18769,1596,109,25,109,0,97,20,23,1,21.1,95.83,0.23
18781,1597,97,37,97,1,106,93,15,2,15.46,88.24,0.38
18793,1598,106,35,106,0,119,52,28,1,26.42,96.55,0.33
18805,1599,119,39,119,0,118,25,39,2,32.77,95.12,0.33
18817,1600,118,34,118,0,149,54,25,1,21.19,96.15,0.29
18829,1601,149,49,149,0,149,39,24,3,16.11,88.89,0.33
18841,1602,149,30,149,0,164,20,18,6,12.08,75.0,0.2
18853,1603,164,46,164,0,197,41,30,5,18.29,85.71,0.28
18865,1604,197,68,197,0,226,58,19,3,9.64,86.36,0.35
18877,1605,226,32,226,0,186,79,25,8,11.06,75.76,0.14
18889,1606,186,52,186,1,237,43,54,5,29.03,91.53,0.28
18901,1607,237,12,237,0,193,13,39,3,16.46,92.86,0.05
18913,1608,193,27,193,0,208,61,31,2,16.06,93.94,0.14
18925,1609,208,18,208,0,185,36,11,5,5.29,68.75,0.09
18937,1610,185,62,185,0,193,24,17,3,9.19,85.0,0.34
18949,1611,193,25,193,0,156,43,17,6,8.81,73.91,0.13
18961,1612,156,49,156,0,168,53,14,1,8.97,93.33,0.31
18973,1613,168,44,168,0,186,33,37,3,22.02,92.5,0.26
18985,1614,186,37,186,0,164,47,37,2,19.89,94.87,0.2
18997,1615,164,24,164,0,170,98,41,7,25.0,85.42,0.15
19009,1616,170,48,170,0,149,33,39,2,22.94,95.12,0.28
19021,1617,149,38,149,1,174,31,14,4,9.4,77.78,0.26
19033,1618,174,28,174,0,172,104,18,4,10.34,81.82,0.16
19045,1619,172,20,172,0,177,28,41,6,23.84,87.23,0.12
19057,1620,177,52,177,0,173,41,27,5,15.25,84.38,0.29
19069,1621,173,41,173,0,173,40,31,8,17.92,79.49,0.24
19081,1622,173,60,173,0,228,26,23,3,13.29,88.46,0.35
19093,1623,228,41,228,0,252,44,34,13,14.91,72.34,0.18
19105,1624,252,44,252,1,239,43,56,0,22.22,100.0,0.17
19117,1625,239,20,239,0,278,13,63,3,26.36,95.45,0.08
19129,1626,278,33,278,0,267,19,61,15,21.94,80.26,0.12
19141,1627,267,24,267,1,259,54,58,9,21.72,86.57,0.09
19153,1628,259,53,259,0,292,29,21,8,8.11,72.41,0.2
19165,1629,292,52,292,0,311,35,44,4,15.07,91.67,0.18
19177,1630,311,37,311,0,308,41,66,6,21.22,91.67,0.12
19189,1631,308,36,308,0,325,62,72,4,23.38,94.74,0.12
19201,1632,325,26,325,0,338,36,28,12,8.62,70.0,0.08
19213,1633,338,42,338,0,338,37,46,6,13.61,88.46,0.12
19225,1634,338,23,338,0,358,37,33,7,9.76,82.5,0.07
19237,1635,358,24,358,0,324,22,32,5,8.94,86.49,0.07
19249,1636,324,38,324,1,299,88,38,3,11.73,92.68,0.12
19261,1637,299,56,299,0,320,52,42,9,14.05,82.35,0.19
19273,1638,320,40,320,0,306,39,34,5,10.62,87.18,0.12
19285,1639,306,55,306,0,294,27,39,5,12.75,88.64,0.18
19297,1640,294,33,294,0,285,29,31,12,10.54,72.09,0.11
19309,1641,285,17,285,0,266,34,70,3,24.56,95.89,0.06
19321,1642,266,47,266,0,276,19,78,2,29.32,97.5,0.18
19333,1643,276,50,276,0,267,14,65,2,23.55,97.01,0.18
19345,1644,267,66,267,0,277,41,34,8,12.73,80.95,0.25
19357,1645,277,36,277,1,239,31,56,1,20.22,98.25,0.13
19369,1646,239,54,239,1,236,37,24,10,10.04,70.59,0.23
19381,1647,236,46,236,0,206,28,35,8,14.83,81.4,0.19
19393,1648,206,41,206,0,204,38,25,7,12.14,78.12,0.2
19405,1649,204,55,204,0,213,37,36,11,17.65,76.6,0.27
19417,1650,213,42,213,0,213,16,48,3,22.54,94.12,0.2
19429,1651,213,72,213,0,219,62,64,5,30.05,92.75,0.34
19452,1653,219,43,231,0,192,64,26,7,11.87,78.79,0.2
19464,1654,192,56,192,0,155,40,21,5,10.94,80.77,0.29
19476,1655,155,24,155,0,109,17,13,6,8.39,68.42,0.15
19488,1656,109,21,109,0,108,43,31,2,28.44,93.94,0.19
19500,1657,108,29,108,1,119,51,24,2,22.22,92.31,0.27
19512,1658,119,95,119,0,115,51,27,4,22.69,87.1,0.8
19524,1659,115,31,115,1,105,21,33,1,28.7,97.06,0.27
19536,1660,105,47,105,0,138,23,17,5,16.19,77.27,0.45
19548,1661,138,104,138,0,129,20,30,5,21.74,85.71,0.75
19560,1662,129,45,129,0,124,21,35,5,27.13,87.5,0.35
19572,1663,124,39,124,0,124,38,33,11,26.61,75.0,0.31
19584,1664,124,28,124,0,123,25,24,7,19.35,77.42,0.23
19596,1665,123,23,123,0,111,13,29,6,23.58,82.86,0.19
19608,1666,111,36,111,0,102,69,13,5,11.71,72.22,0.32
19620,1667,102,39,102,0,102,31,14,1,13.73,93.33,0.38
19632,1668,102,35,102,0,104,37,12,2,11.76,85.71,0.34
19644,1669,104,28,104,0,77,14,10,2,9.62,83.33,0.27
19656,1670,77,22,77,0,93,14,13,0,16.88,100.0,0.29
19668,1671,93,31,93,0,96,33,22,2,23.66,91.67,0.33
19680,1672,96,41,96,0,86,93,19,2,19.79,90.48,0.43
19692,1673,86,34,86,0,84,26,18,3,20.93,85.71,0.4
19726,1676,84,29,88,0,68,29,17,2,20.24,89.47,0.35
19738,1677,68,72,68,0,78,44,23,2,33.82,92.0,1.06
19772,1680,78,37,40,0,54,25,11,1,14.1,91.67,0.47
19784,1681,54,44,54,0,51,25,14,1,25.93,93.33,0.81
19796,1682,51,50,51,1,32,34,11,3,21.57,78.57,0.98
19808,1683,32,55,32,0,42,45,11,1,34.38,91.67,1.72
19842,1686,42,52,44,0,41,41,22,0,52.38,100.0,1.24
20074,1707,41,11,49,0,70,69,12,2,29.27,85.71,0.27
20086,1708,70,63,70,0,73,71,13,5,18.57,72.22,0.9
20098,1709,73,61,73,0,65,48,15,3,20.55,83.33,0.84
20143,1713,65,60,47,0,50,44,17,3,26.15,85.0,0.92
20188,1717,50,37,41,0,37,47,10,1,20.0,90.91,0.74
20200,1718,37,55,37,0,57,41,11,5,29.73,68.75,1.49
20212,1719,57,46,57,0,46,45,17,0,29.82,100.0,0.81
20235,1721,46,16,49,0,58,59,11,2,23.91,84.62,0.35
20247,1722,58,18,58,0,50,14,10,3,17.24,76.92,0.31
20281,1725,50,29,46,0,55,20,11,2,22.0,84.62,0.58
20293,1726,55,40,55,0,46,29,14,1,25.45,93.33,0.73
20316,1728,46,31,51,0,51,35,12,1,26.09,92.31,0.67
20416,1737,51,44,71,0,69,75,11,3,21.57,78.57,0.86
20439,1739,69,34,67,0,54,45,11,4,15.94,73.33,0.49
20473,1742,54,26,59,0,64,47,10,3,18.52,76.92,0.48
20485,1743,64,21,64,0,63,49,14,4,21.88,77.78,0.33
20519,1746,63,79,38,0,37,33,11,0,17.46,100.0,1.25
20641,1757,37,33,29,0,21,39,11,0,29.73,100.0,0.89
20686,1761,21,41,35,0,49,56,12,0,57.14,100.0,1.95
20698,1762,49,29,49,0,40,13,10,1,20.41,90.91,0.59
20743,1766,40,45,61,0,53,47,12,1,30.0,92.31,1.12
20755,1767,53,27,53,0,68,52,11,1,20.75,91.67,0.51
20767,1768,68,43,68,1,74,39,12,4,17.65,75.0,0.63
20779,1769,74,35,74,0,67,35,11,2,14.86,84.62,0.47
20791,1770,67,31,67,1,78,24,15,2,22.39,88.24,0.46
20803,1771,78,39,78,0,68,20,22,2,28.21,91.67,0.5
20815,1772,68,28,68,1,56,51,22,2,32.35,91.67,0.41
20838,1774,56,53,84,0,109,50,18,3,32.14,85.71,0.95
20850,1775,109,22,109,1,98,40,33,2,30.28,94.29,0.2
20862,1776,98,36,98,1,129,33,16,2,16.33,88.89,0.37
20874,1777,129,37,129,0,142,28,20,4,15.5,83.33,0.29
20886,1778,142,32,142,0,173,47,21,5,14.79,80.77,0.23
20898,1779,173,31,173,0,172,30,39,6,22.54,86.67,0.18
20910,1780,172,40,172,0,205,34,27,10,15.7,72.97,0.23
20922,1781,205,22,205,0,220,16,35,10,17.07,77.78,0.11
20934,1782,220,31,220,0,229,22,30,5,13.64,85.71,0.14
20946,1783,229,23,229,0,212,33,39,3,17.03,92.86,0.1
20958,1784,212,27,212,0,207,18,35,3,16.51,92.11,0.13
20970,1785,207,70,207,0,212,42,38,4,18.36,90.48,0.34
20982,1786,212,34,212,0,175,62,17,1,8.02,94.44,0.16
20994,1787,175,49,175,0,142,49,24,1,13.71,96.0,0.28
21006,1788,142,34,142,0,190,42,42,2,29.58,95.45,0.24
21018,1789,190,19,190,0,190,46,30,8,15.79,78.95,0.1
21030,1790,190,49,190,0,154,28,20,0,10.53,100.0,0.26
21042,1791,154,18,154,0,151,22,21,1,13.64,95.45,0.12
21054,1792,151,28,151,0,138,27,17,3,11.26,85.0,0.19
21066,1793,138,40,138,0,138,26,19,2,13.77,90.48,0.29
21078,1794,138,37,138,0,152,52,27,1,19.57,96.43,0.27
21090,1795,152,29,152,0,132,39,23,2,15.13,92.0,0.19
21102,1796,132,92,132,0,150,27,32,4,24.24,88.89,0.7
21114,1797,150,42,150,0,172,22,27,6,18.0,81.82,0.28
21126,1798,172,34,172,0,158,23,16,4,9.3,80.0,0.2
21138,1799,158,17,158,0,170,33,14,5,8.86,73.68,0.11
21150,1800,170,15,170,0,171,45,20,9,11.76,68.97,0.09
21162,1801,171,37,171,0,150,61,15,6,8.77,71.43,0.22
21174,1802,150,50,150,0,189,36,25,3,16.67,89.29,0.33
21186,1803,189,46,189,0,172,37,20,5,10.58,80.0,0.24
21198,1804,172,68,172,0,186,33,28,4,16.28,87.5,0.4
21210,1805,186,17,186,0,194,15,11,6,5.91,64.71,0.09
21222,1806,194,49,194,0,205,48,27,3,13.92,90.0,0.25
21234,1807,205,46,205,0,228,46,62,10,30.24,86.11,0.22
21246,1808,228,60,228,0,239,46,32,10,14.04,76.19,0.26
21258,1809,239,59,239,1,249,48,38,3,15.9,92.68,0.25
21270,1810,249,21,249,0,312,82,35,9,14.06,79.55,0.08
21282,1811,312,15,312,0,343,16,48,4,15.38,92.31,0.05
21294,1812,343,37,343,0,380,23,57,9,16.62,86.36,0.11
21306,1813,380,51,380,0,365,38,64,10,16.84,86.49,0.13
21318,1814,365,57,365,1,416,60,70,5,19.18,93.33,0.16
21330,1815,416,84,416,0,350,21,36,2,8.65,94.74,0.2
21342,1816,350,55,350,0,336,49,60,12,17.14,83.33,0.16
21354,1817,336,43,336,0,353,16,38,6,11.31,86.36,0.13
21366,1818,353,34,353,0,337,51,32,8,9.07,80.0,0.1
21378,1819,337,78,337,1,322,65,58,6,17.21,90.62,0.23
21390,1820,322,39,322,1,324,49,36,6,11.18,85.71,0.12
21402,1821,324,49,324,0,308,28,68,7,20.99,90.67,0.15
21414,1822,308,39,308,0,338,44,39,12,12.66,76.47,0.13
21426,1823,338,36,338,1,322,27,59,13,17.46,81.94,0.11
21438,1824,322,46,322,1,340,38,46,7,14.29,86.79,0.14
21450,1825,340,84,340,0,381,83,66,6,19.41,91.67,0.25
21462,1826,381,55,381,0,389,35,53,13,13.91,80.3,0.14
21474,1827,389,52,389,1,390,26,82,12,21.08,87.23,0.13
21486,1828,390,57,390,0,439,59,83,20,21.28,80.58,0.15
21498,1829,439,37,439,0,455,15,96,5,21.87,95.05,0.08
21510,1830,455,19,455,0,436,49,121,9,26.59,93.08,0.04
21522,1831,436,84,436,1,444,23,99,21,22.71,82.5,0.19
21534,1832,444,53,444,1,469,39,144,7,32.43,95.36,0.12
21546,1833,469,24,469,1,509,40,145,9,30.92,94.16,0.05
21558,1834,509,35,509,1,529,37,80,30,15.72,72.73,0.07
21570,1835,529,58,529,0,586,31,104,29,19.66,78.2,0.11
21582,1836,586,13,586,0,577,23,108,23,18.43,82.44,0.02
21594,1837,577,27,577,1,585,45,124,11,21.49,91.85,0.05
21606,1838,585,29,585,0,657,42,119,13,20.34,90.15,0.05
21618,1839,657,51,657,0,651,45,131,21,19.94,86.18,0.08
21630,1840,651,36,651,1,655,29,109,28,16.74,79.56,0.06
21642,1841,655,31,655,0,648,41,131,44,20.0,74.86,0.05
21654,1842,648,42,648,1,685,25,112,39,17.28,74.17,0.06
21666,1843,685,39,685,0,664,20,219,24,31.97,90.12,0.06
21678,1844,664,53,664,1,683,48,180,65,27.11,73.47,0.08
21690,1845,683,70,683,0,673,37,193,34,28.26,85.02,0.1
21702,1846,673,51,673,1,692,30,175,39,26.0,81.78,0.08
21714,1847,692,44,692,0,683,59,241,5,34.83,97.97,0.06
21726,1848,683,32,683,0,617,55,111,42,16.25,72.55,0.05
21738,1849,617,34,617,0,590,57,198,7,32.09,96.59,0.06
21750,1850,590,31,590,0,484,46,93,37,15.76,71.54,0.05
21762,1851,484,73,484,0,451,50,83,15,17.15,84.69,0.15
21774,1852,451,55,451,0,311,33,62,11,13.75,84.93,0.12
21786,1853,311,26,311,0,345,21,78,13,25.08,85.71,0.08
21798,1854,345,41,345,0,338,37,72,15,20.87,82.76,0.12
21810,1855,338,34,338,0,290,56,56,14,16.57,80.0,0.1
21822,1856,290,28,290,0,311,22,50,10,17.24,83.33,0.1
21834,1857,311,21,311,1,300,33,84,15,27.01,84.85,0.07
21846,1858,300,45,300,0,294,27,81,6,27.0,93.1,0.15
21858,1859,294,58,294,0,278,48,95,12,32.31,88.79,0.2
21870,1860,278,69,278,0,256,26,44,13,15.83,77.19,0.25
21882,1861,256,22,256,0,263,49,38,9,14.84,80.85,0.09
21894,1862,263,16,263,0,233,23,34,9,12.93,79.07,0.06
21906,1863,233,41,233,0,270,50,45,13,19.31,77.59,0.18
21918,1864,270,37,270,0,242,33,30,10,11.11,75.0,0.14
21930,1865,242,20,242,0,221,12,38,8,15.7,82.61,0.08
21942,1866,221,32,221,1,244,56,47,1,21.27,97.92,0.14
21954,1867,244,49,244,1,277,56,67,2,27.46,97.1,0.2
21966,1868,277,45,277,1,287,46,55,3,19.86,94.83,0.16
21978,1869,287,57,287,0,281,43,58,10,20.21,85.29,0.2
21990,1870,281,33,281,0,286,21,60,8,21.35,88.24,0.12
22002,1871,286,67,286,0,288,27,72,13,25.17,84.71,0.23
22014,1872,288,25,288,1,304,80,45,25,15.62,64.29,0.09
22026,1873,304,19,304,0,273,45,47,14,15.46,77.05,0.06
22038,1874,273,26,273,0,258,44,43,13,15.75,76.79,0.1
22050,1875,258,23,258,1,253,18,52,7,20.16,88.14,0.09
22062,1876,253,48,253,0,255,39,61,16,24.11,79.22,0.19
22074,1877,255,32,255,1,248,33,77,1,30.2,98.72,0.13
22086,1878,248,50,248,0,248,56,56,13,22.58,81.16,0.2
22098,1879,248,44,248,1,257,28,77,7,31.05,91.67,0.18
22110,1880,257,51,257,0,228,27,43,13,16.73,76.79,0.2
22122,1881,228,45,228,0,257,19,70,5,30.7,93.33,0.2
22134,1882,257,29,257,1,210,40,42,8,16.34,84.0,0.11
22146,1883,210,32,210,0,224,35,48,9,22.86,84.21,0.15
22158,1884,224,27,224,0,197,32,24,10,10.71,70.59,0.12
22170,1885,197,23,197,0,176,48,41,3,20.81,93.18,0.12
22182,1886,176,27,176,0,218,83,32,10,18.18,76.19,0.15
22194,1887,218,19,218,0,182,53,45,8,20.64,84.91,0.09
22206,1888,182,37,182,0,174,35,24,15,13.19,61.54,0.2
22218,1889,174,26,174,1,196,80,43,2,24.71,95.56,0.15
22230,1890,196,44,196,1,184,49,49,4,25.0,92.45,0.22
22242,1891,184,16,184,0,202,22,45,7,24.46,86.54,0.09
22254,1892,202,26,202,0,208,64,60,14,29.7,81.08,0.13
22266,1893,208,67,208,0,226,48,57,8,27.4,87.69,0.32
22278,1894,226,37,226,1,246,31,96,2,42.48,97.96,0.16
22290,1895,246,22,246,0,251,45,69,13,28.05,84.15,0.09
22302,1896,251,43,251,1,253,64,77,15,30.68,83.7,0.17
22314,1897,253,14,253,0,270,36,68,17,26.88,80.0,0.06
22326,1898,270,49,270,0,232,17,71,8,26.3,89.87,0.18
22338,1899,232,29,232,0,228,40,53,9,22.84,85.48,0.12
22350,1900,228,39,228,0,217,23,59,14,25.88,80.82,0.17
22362,1901,217,13,217,26,215,29,67,1,30.88,98.53,0.06
22374,1902,215,30,215,0,214,34,59,2,27.44,96.72,0.14
22386,1903,214,47,214,0,185,33,49,5,22.9,90.74,0.22
22398,1904,185,14,185,1,192,24,51,6,27.57,89.47,0.08
22410,1905,192,20,192,0,222,67,63,6,32.81,91.3,0.1
22422,1906,222,53,222,0,234,41,70,6,31.53,92.11,0.24
22434,1907,234,21,234,1,207,60,47,7,20.09,87.04,0.09
22446,1908,207,12,207,0,229,25,67,5,32.37,93.06,0.06
22458,1909,229,53,229,0,234,46,92,2,40.17,97.87,0.23
22470,1910,234,38,234,0,240,23,82,0,35.04,100.0,0.16
22482,1911,240,24,240,0,240,14,74,4,30.83,94.87,0.1
22494,1912,240,34,240,1,245,30,68,6,28.33,91.89,0.14
22506,1913,245,35,245,0,214,24,47,6,19.18,88.68,0.14
22518,1914,214,19,214,0,182,21,59,0,27.57,100.0,0.09
22530,1915,182,36,182,0,200,35,34,6,18.68,85.0,0.2
22542,1916,200,73,200,0,191,39,61,2,30.5,96.83,0.36
22554,1917,191,39,191,0,210,30,57,4,29.84,93.44,0.2
22566,1918,210,36,210,0,195,18,55,1,26.19,98.21,0.17
22578,1919,195,90,195,0,216,22,61,8,31.28,88.41,0.46
22590,1920,216,26,216,0,218,34,73,6,33.8,92.41,0.12
22602,1921,218,26,218,0,219,20,58,3,26.61,95.08,0.12
22614,1922,219,34,219,0,215,41,44,7,20.09,86.27,0.16
22626,1923,215,68,215,1,207,35,48,12,22.33,80.0,0.32
22638,1924,207,22,207,0,203,12,38,16,18.36,70.37,0.11
22650,1925,203,34,203,0,223,12,46,13,22.66,77.97,0.17
22662,1926,223,44,223,1,201,40,47,6,21.08,88.68,0.2
22674,1927,201,81,201,0,214,28,52,11,25.87,82.54,0.4
22686,1928,214,81,214,1,197,14,39,16,18.22,70.91,0.38
22698,1929,197,21,197,0,176,41,45,9,22.84,83.33,0.11
22710,1930,176,36,176,1,185,69,43,17,24.43,71.67,0.2
22722,1931,185,44,185,0,153,30,39,8,21.08,82.98,0.24
22734,1932,153,20,153,0,151,18,29,7,18.95,80.56,0.13
22746,1933,151,25,151,0,146,39,42,12,27.81,77.78,0.17
22758,1934,146,57,146,0,146,47,33,14,22.6,70.21,0.39
22770,1935,146,57,146,0,151,33,39,7,26.71,84.78,0.39
22782,1936,151,30,151,0,158,21,35,11,23.18,76.09,0.2
22794,1937,158,22,158,1,129,135,37,1,23.42,97.37,0.14
22806,1938,129,16,129,0,99,19,20,5,15.5,80.0,0.12
22818,1939,99,20,99,0,102,24,21,4,21.21,84.0,0.2
22830,1940,102,29,102,0,106,59,24,7,23.53,77.42,0.28
22842,1941,106,38,106,0,89,34,16,3,15.09,84.21,0.36
22854,1942,89,47,89,0,55,15,10,1,11.24,90.91,0.53
22866,1943,55,40,55,0,57,14,14,2,25.45,87.5,0.73
22889,1945,57,34,59,0,51,14,11,0,19.3,100.0,0.6
22901,1946,51,26,51,0,57,47,16,1,31.37,94.12,0.51
22913,1947,57,42,57,0,63,21,17,3,29.82,85.0,0.74
22925,1948,63,51,63,0,65,51,15,1,23.81,93.75,0.81
22937,1949,65,36,65,0,60,14,21,0,32.31,100.0,0.55
22949,1950,60,40,60,0,44,23,19,1,31.67,95.0,0.67
22961,1951,44,24,44,0,54,18,18,0,40.91,100.0,0.55
22973,1952,54,32,54,0,40,54,13,2,24.07,86.67,0.59
22985,1953,40,34,40,0,54,33,18,2,45.0,90.0,0.85
22997,1954,54,25,54,0,52,16,16,1,29.63,94.12,0.46
23009,1955,52,14,52,0,51,36,19,2,36.54,90.48,0.27
23021,1956,51,32,51,0,35,56,12,0,23.53,100.0,0.63
23033,1957,35,21,35,0,41,49,12,4,34.29,75.0,0.6
23067,1960,41,31,42,0,48,25,12,0,29.27,100.0,0.76
23079,1961,48,28,48,1,55,31,13,0,27.08,100.0,0.58
23091,1962,55,31,55,0,50,25,19,0,34.55,100.0,0.56
23103,1963,50,33,50,0,44,38,10,0,20.0,100.0,0.66
23115,1964,44,23,44,0,45,36,13,2,29.55,86.67,0.52
23127,1965,45,36,45,0,49,39,15,2,33.33,88.24,0.8
23139,1966,49,58,49,0,44,44,22,0,44.9,100.0,1.18
23184,1970,44,16,49,0,45,39,14,2,31.82,87.5,0.36
23196,1971,45,30,45,0,43,29,12,0,26.67,100.0,0.67
23208,1972,43,15,43,0,42,21,12,0,27.91,100.0,0.35
23308,1981,42,49,21,0,30,31,11,2,26.19,84.62,1.17
23331,1983,30,21,25,0,29,46,11,0,36.67,100.0,0.7
23343,1984,29,28,29,0,28,51,10,0,34.48,100.0,0.97
23355,1985,28,29,28,0,29,46,14,0,50.0,100.0,1.04
23664,2013,29,45,24,0,28,25,15,1,51.72,93.75,1.55
23676,2014,28,19,28,0,33,19,12,0,42.86,100.0,0.68
23699,2016,33,63,23,0,27,38,10,2,30.3,83.33,1.91
23711,2017,27,19,27,0,35,69,12,0,44.44,100.0,0.7
23723,2018,35,26,35,0,40,17,14,0,40.0,100.0,0.74
23746,2020,40,22,45,0,62,45,14,1,35.0,93.33,0.55
23758,2021,62,58,62,0,57,14,22,0,35.48,100.0,0.94
23770,2022,57,35,57,0,63,24,23,2,40.35,92.0,0.61
23782,2023,63,58,63,0,96,15,21,0,33.33,100.0,0.92
23794,2024,96,29,96,0,93,33,35,0,36.46,100.0,0.3
23806,2025,93,33,93,1,101,54,43,2,46.24,95.56,0.35
23818,2026,101,15,101,0,102,18,47,1,46.53,97.92,0.15
23830,2027,102,20,102,0,114,45,38,9,37.25,80.85,0.2
23842,2028,114,29,114,0,132,13,48,0,42.11,100.0,0.25
23854,2029,132,22,132,0,119,13,58,5,43.94,92.06,0.17
23866,2030,119,35,119,0,137,19,43,7,36.13,86.0,0.29
23878,2031,137,15,137,0,156,21,55,1,40.15,98.21,0.11
23890,2032,156,38,156,0,174,14,44,4,28.21,91.67,0.24
23902,2033,174,55,174,0,171,28,68,0,39.08,100.0,0.32
23914,2034,171,29,171,1,194,18,54,1,31.58,98.18,0.17
23926,2035,194,27,194,0,214,23,71,5,36.6,93.42,0.14
23938,2036,214,17,214,1,242,16,65,6,30.37,91.55,0.08
23950,2037,242,35,242,0,351,47,73,14,30.17,83.91,0.14
23962,2038,351,16,351,0,762,45,86,16,24.5,84.31,0.05
23974,2039,762,21,762,0,1166,21,158,43,20.73,78.61,0.03
23986,2040,1166,40,1166,0,2248,38,169,64,14.49,72.53,0.03
23998,2041,2248,36,2248,1,3022,36,418,108,18.59,79.47,0.02
24010,2042,3022,41,3022,1,4393,46,445,229,14.73,66.02,0.01
24022,2043,4393,73,4393,2,5403,54,748,328,17.03,69.52,0.02
24034,2044,5403,70,5403,2,6615,54,609,270,11.27,69.28,0.01
24046,2045,6615,56,6615,2,7012,39,1962,134,29.66,93.61,0.01
24058,2046,7012,59,7012,3,7691,69,2089,96,29.79,95.61,0.01
24070,2047,7691,62,7691,3,7900,56,1921,323,24.98,85.61,0.01
24082,2048,7900,69,7900,2,8349,52,884,233,11.19,79.14,0.01
24094,2049,8349,86,8349,2,8477,94,1154,258,13.82,81.73,0.01
24106,2050,8477,86,8477,2,8471,51,988,171,11.66,85.25,0.01
24118,2051,8471,70,8471,3,8439,75,1263,82,14.91,93.9,0.01
24130,2052,8439,46,8439,2,8330,69,1136,144,13.46,88.75,0.01
24142,2053,8330,68,8330,2,8294,49,1036,47,12.44,95.66,0.01
24154,2054,8294,61,8294,3,8248,67,1382,146,16.66,90.45,0.01
24166,2055,8248,53,8248,3,8167,60,1247,236,15.12,84.09,0.01
24178,2056,8167,50,8167,3,8194,56,2451,54,30.01,97.84,0.01
24190,2057,8194,53,8194,3,8156,74,2101,446,25.64,82.49,0.01
24202,2058,8156,76,8156,4,8208,49,2662,45,32.64,98.34,0.01
24214,2059,8208,67,8208,3,8208,55,2491,240,30.35,91.21,0.01
24226,2060,8208,80,8208,3,8282,68,2180,39,26.56,98.24,0.01
24238,2061,8282,56,8282,4,8297,65,2784,76,33.62,97.34,0.01
24250,2062,8297,83,8297,3,8313,52,2522,418,30.4,85.78,0.01
24262,2063,8313,53,8313,2,8332,90,4004,22,48.17,99.45,0.01
24274,2064,8332,66,8332,1,8317,54,2973,158,35.68,94.95,0.01
24286,2065,8317,64,8317,3,8336,51,3752,28,45.11,99.26,0.01
24298,2066,8336,66,8336,2,8357,57,3623,29,43.46,99.21,0.01
24310,2067,8357,80,8357,3,8290,61,4362,23,52.2,99.48,0.01
24322,2068,8290,44,8290,3,8366,90,4408,29,53.17,99.35,0.01
24334,2069,8366,61,8366,3,8333,76,4494,16,53.72,99.65,0.01
24346,2070,8333,69,8333,2,8306,51,3749,126,44.99,96.75,0.01
24358,2071,8306,74,8306,3,8327,53,3436,293,41.37,92.14,0.01
24370,2072,8327,65,8327,4,8134,56,3005,335,36.09,89.97,0.01
24382,2073,8134,54,8134,3,8119,53,2980,379,36.64,88.72,0.01
24394,2074,8119,73,8119,3,7817,64,2812,137,34.63,95.35,0.01
24406,2075,7817,51,7817,3,7560,55,2392,602,30.6,79.89,0.01
24418,2076,7560,52,7560,2,7477,56,2875,27,38.03,99.07,0.01
24430,2077,7477,75,7477,2,7533,56,3057,99,40.89,96.86,0.01
24442,2078,7533,51,7533,3,7569,55,2978,78,39.53,97.45,0.01
24454,2079,7569,44,7569,1,7679,61,2754,460,36.39,85.69,0.01
24466,2080,7679,76,7679,2,7577,67,3142,49,40.92,98.46,0.01
24478,2081,7577,48,7577,3,7511,67,3275,44,43.22,98.67,0.01
24490,2082,7511,74,7511,2,7446,45,2847,68,37.9,97.67,0.01
24502,2083,7446,57,7446,3,7360,58,2690,232,36.13,92.06,0.01
24514,2084,7360,68,7360,3,7237,41,2688,36,36.52,98.68,0.01
24526,2085,7237,50,7237,3,7046,59,2275,583,31.44,79.6,0.01
24538,2086,7046,54,7046,3,6921,49,2371,156,33.65,93.83,0.01
24550,2087,6921,74,6921,2,6823,54,2418,181,34.94,93.04,0.01
24562,2088,6823,45,6823,3,6561,64,2151,36,31.53,98.35,0.01
24574,2089,6561,56,6561,3,6553,45,2222,200,33.87,91.74,0.01
24586,2090,6553,49,6553,2,6489,52,1763,232,26.9,88.37,0.01
24598,2091,6489,46,6489,3,6516,70,1946,129,29.99,93.78,0.01
24610,2092,6516,67,6516,3,6599,57,2303,243,35.34,90.46,0.01
24622,2093,6599,52,6599,2,6565,102,2464,39,37.34,98.44,0.01
24634,2094,6565,47,6565,2,6571,45,2304,149,35.1,93.93,0.01
24646,2095,6571,39,6571,3,6609,55,1412,294,21.49,82.77,0.01
24658,2096,6609,54,6609,3,6739,46,1627,234,24.62,87.43,0.01
24670,2097,6739,59,6739,3,6758,58,1181,442,17.52,72.77,0.01
24682,2098,6758,58,6758,2,6850,53,1599,256,23.66,86.2,0.01
24694,2099,6850,68,6850,3,6738,51,1401,210,20.45,86.96,0.01
24706,2100,6738,62,6738,2,6853,85,1357,465,20.14,74.48,0.01
24718,2101,6853,68,6853,3,6857,63,1494,163,21.8,90.16,0.01
24730,2102,6857,44,6857,2,6910,52,1682,119,24.53,93.39,0.01
24742,2103,6910,54,6910,4,6879,53,2062,142,29.84,93.56,0.01
24754,2104,6879,47,6879,3,7001,58,1956,253,28.43,88.55,0.01
24766,2105,7001,47,7001,2,7057,62,1927,217,27.52,89.88,0.01
24778,2106,7057,64,7057,3,7048,51,2145,53,30.4,97.59,0.01
24790,2107,7048,63,7048,3,7275,58,1004,418,14.25,70.6,0.01
24802,2108,7275,56,7275,4,7306,47,1072,230,14.74,82.33,0.01
24814,2109,7306,50,7306,3,7012,60,374,157,5.12,70.43,0.01
24826,2110,7012,66,7012,3,7001,50,286,122,4.08,70.1,0.01
24838,2111,7001,49,7001,3,6682,47,102,60,1.46,62.96,0.01
24850,2112,6682,45,6682,4,6170,51,136,44,2.04,75.56,0.01
24862,2113,6170,35,6170,3,5889,42,275,55,4.46,83.33,0.01
24874,2114,5889,48,5889,3,5451,43,307,74,5.21,80.58,0.01
24886,2115,5451,42,5451,2,5213,48,396,56,7.26,87.61,0.01
24898,2116,5213,64,5213,2,4985,49,419,56,8.04,88.21,0.01
24910,2117,4985,35,4985,2,4799,35,519,26,10.41,95.23,0.01
24922,2118,4799,47,4799,2,4728,43,420,171,8.75,71.07,0.01
24934,2119,4728,36,4728,2,4545,35,527,72,11.15,87.98,0.01
24946,2120,4545,43,4545,3,4485,47,240,40,5.28,85.71,0.01
24958,2121,4485,31,4485,2,4233,31,247,61,5.51,80.19,0.01
24970,2122,4233,31,4233,1,3729,34,134,61,3.17,68.72,0.01
24982,2123,3729,49,3729,2,3461,31,258,29,6.92,89.9,0.01
24994,2124,3461,27,3461,1,2606,28,117,35,3.38,76.97,0.01
25006,2125,2606,42,2606,1,1864,22,189,26,7.25,87.91,0.02
25018,2126,1864,43,1864,2,1805,30,195,37,10.46,84.05,0.02
25030,2127,1805,33,1805,1,1852,22,398,22,22.05,94.76,0.02
25042,2128,1852,49,1852,1,1789,25,329,30,17.76,91.64,0.03
25054,2129,1789,32,1789,1,1711,20,441,20,24.65,95.66,0.02
25066,2130,1711,44,1711,1,1335,29,165,41,9.64,80.1,0.03
25078,2131,1335,23,1335,1,971,28,147,43,11.01,77.37,0.02
25090,2132,971,37,971,8,652,34,60,22,6.18,73.17,0.04
25102,2133,652,21,652,0,391,24,47,5,7.21,90.38,0.03
25114,2134,391,28,391,0,186,16,24,9,6.14,72.73,0.07
25126,2135,186,25,186,0,167,19,42,1,22.58,97.67,0.13
25138,2136,167,20,167,0,144,18,52,6,31.14,89.66,0.12
25150,2137,144,20,144,1,136,19,57,2,39.58,96.61,0.14
25162,2138,136,26,136,0,125,24,44,5,32.35,89.8,0.19
25174,2139,125,22,125,0,150,20,52,1,41.6,98.11,0.18
25186,2140,150,32,150,1,139,19,49,6,32.67,89.09,0.21
25198,2141,139,31,139,0,130,23,51,6,36.69,89.47,0.22
25210,2142,130,17,130,0,138,17,45,2,34.62,95.74,0.13
25222,2143,138,39,138,0,148,28,58,2,42.03,96.67,0.28
25234,2144,148,22,148,0,150,18,43,7,29.05,86.0,0.15
25246,2145,150,41,150,0,142,24,47,4,31.33,92.16,0.27
25258,2146,142,12,142,0,131,27,24,2,16.9,92.31,0.08
25270,2147,131,20,131,0,136,30,49,4,37.4,92.45,0.15
25282,2148,136,31,136,1,101,20,34,3,25.0,91.89,0.23
25294,2149,101,36,101,0,98,27,31,2,30.69,93.94,0.36
25306,2150,98,21,98,0,113,19,42,5,42.86,89.36,0.21
25318,2151,113,24,113,0,95,38,44,0,38.94,100.0,0.21
25330,2152,95,34,95,0,74,15,35,1,36.84,97.22,0.36
25342,2153,74,17,74,0,75,50,27,3,36.49,90.0,0.23
25354,2154,75,19,75,0,60,25,16,1,21.33,94.12,0.25
25366,2155,60,18,60,0,57,20,16,2,26.67,88.89,0.3
25378,2156,57,26,57,0,68,20,26,0,45.61,100.0,0.46
25390,2157,68,15,68,0,47,39,14,0,20.59,100.0,0.22
25402,2158,47,23,47,0,51,22,24,2,51.06,92.31,0.49
25414,2159,51,33,51,0,42,12,14,2,27.45,87.5,0.65
25426,2160,42,26,42,0,35,27,14,0,33.33,100.0,0.62
25438,2161,35,23,35,0,32,22,11,2,31.43,84.62,0.66
25461,2163,32,23,29,0,33,20,18,0,56.25,100.0,0.72
25473,2164,33,31,33,0,24,15,18,0,54.55,100.0,0.94
25903,2203,24,22,281,0,308,36,13,2,54.17,86.67,0.92
25915,2204,308,30,308,0,342,24,18,15,5.84,54.55,0.1
25960,2208,342,22,453,0,440,50,10,7,2.92,58.82,0.06
26766,2283,440,25,37,0,49,43,10,3,2.27,76.92,0.06
26800,2286,49,24,43,0,44,34,11,0,22.45,100.0,0.49
26845,2290,44,22,45,0,49,24,10,1,22.73,90.91,0.5
26857,2291,49,33,49,0,40,19,10,4,20.41,71.43,0.67
26902,2295,40,30,39,0,43,18,16,0,40.0,100.0,0.75
26914,2296,43,35,43,0,45,21,13,2,30.23,86.67,0.81
26926,2297,45,17,45,0,38,25,12,1,26.67,92.31,0.38
26949,2299,38,21,44,0,47,14,10,4,26.32,71.43,0.55
26961,2300,47,17,47,1,54,34,13,2,27.66,86.67,0.36
26973,2301,54,20,54,0,61,34,22,0,40.74,100.0,0.37
26985,2302,61,25,61,0,74,21,23,1,37.7,95.83,0.41
26997,2303,74,16,74,1,68,19,19,2,25.68,90.48,0.22
27009,2304,68,18,68,0,55,17,19,2,27.94,90.48,0.26
27021,2305,55,25,55,0,69,22,22,0,40.0,100.0,0.45
27033,2306,69,24,69,0,63,13,14,4,20.29,77.78,0.35
27045,2307,63,14,63,0,73,20,20,1,31.75,95.24,0.22
27057,2308,73,19,73,0,78,14,12,7,16.44,63.16,0.26
27069,2309,78,24,78,0,66,12,19,3,24.36,86.36,0.31
27081,2310,66,20,66,0,90,12,22,0,33.33,100.0,0.3
27093,2311,90,18,90,0,91,12,16,3,17.78,84.21,0.2
27105,2312,91,21,91,0,81,11,23,2,25.27,92.0,0.23
27117,2313,81,25,81,0,65,15,16,5,19.75,76.19,0.31
27129,2314,65,25,65,0,71,18,10,5,15.38,66.67,0.38
27141,2315,71,21,71,0,66,14,14,2,19.72,87.5,0.3
27153,2316,66,27,66,0,63,14,12,2,18.18,85.71,0.41
27165,2317,63,18,63,0,61,19,17,1,26.98,94.44,0.29
27188,2319,61,23,41,0,33,19,10,1,16.39,90.91,0.38
27200,2320,33,19,33,0,31,24,11,1,33.33,91.67,0.58
